"","SIndex","ScenarioName","year","month","effectivity","fraction.excluded"
"1",1,"IAori",2018,0,0.97,1
"2",2,"IADel6",2018,0,0.97,1
"3",3,"IADel12",2018,0,0.97,1
"4",4,"IADel18",2018,0,0.97,1
"5",5,"IADel24",2018,0,0.97,1
"6",6,"IABIDel6",2018,0,0.97,1
"7",7,"IABIDel12",2018,0,0.97,1
"8",8,"IABIDel18",2018,0,0.97,1
"9",9,"IABIDel24",2018,0,0.97,1
"10",10,"IACovDel6",2018,0,0.97,1
"11",11,"IACovDel12",2018,0,0.97,1
"12",12,"IACovDel18",2018,0,0.97,1
"13",13,"IACovDel24",2018,0,0.97,1
