,SIndex,ScenarioName,year,coverage,period,drug,month,fraction.excluded,delay
1,1,IAori,2018,0.65,A,xIA,3,0.05,-1
2,1,IAori,2018,0,A,xIA,6,0.05,-1
3,1,IAori,2018,0,A,xIA,9,0.05,-1
4,1,IAori,2018,0,A,xIA,12,0.05,-1
5,1,IAori,2019,0.65,A,xIA,3,0.05,-1
6,1,IAori,2019,0,A,xIA,6,0.05,-1
7,1,IAori,2019,0,A,xIA,9,0.05,-1
8,1,IAori,2019,0,A,xIA,12,0.05,-1
9,1,IAori,2020,0.65,A,xIA,3,0.05,-1
10,1,IAori,2020,0,A,xIA,6,0.05,-1
11,1,IAori,2020,0,A,xIA,9,0.05,-1
12,1,IAori,2020,0,A,xIA,12,0.05,-1
13,1,IAori,2021,0.65,A,xIA,3,0.05,-1
14,1,IAori,2021,0,A,xIA,6,0.05,-1
15,1,IAori,2021,0,A,xIA,9,0.05,-1
16,1,IAori,2021,0,A,xIA,12,0.05,-1
17,1,IAori,2022,0.65,A,xIA,3,0.05,-1
18,1,IAori,2022,0,A,xIA,6,0.05,-1
19,1,IAori,2022,0,A,xIA,9,0.05,-1
20,1,IAori,2022,0,A,xIA,12,0.05,-1
21,1,IAori,2023,0.65,A,xIA,3,0.05,-1
22,1,IAori,2023,0,A,xIA,6,0.05,-1
23,1,IAori,2023,0,A,xIA,9,0.05,-1
24,1,IAori,2023,0,A,xIA,12,0.05,-1
25,1,IAori,2024,0.65,A,xIA,3,0.05,-1
26,1,IAori,2024,0,A,xIA,6,0.05,-1
27,1,IAori,2024,0,A,xIA,9,0.05,-1
28,1,IAori,2024,0,A,xIA,12,0.05,-1
29,1,IAori,2025,0.65,A,xIA,3,0.05,-1
30,1,IAori,2025,0,A,xIA,6,0.05,-1
31,1,IAori,2025,0,A,xIA,9,0.05,-1
32,1,IAori,2025,0,A,xIA,12,0.05,-1
33,1,IAori,2026,0.65,A,xIA,3,0.05,-1
34,1,IAori,2026,0,A,xIA,6,0.05,-1
35,1,IAori,2026,0,A,xIA,9,0.05,-1
36,1,IAori,2026,0,A,xIA,12,0.05,-1
37,1,IAori,2027,0.65,A,xIA,3,0.05,-1
38,1,IAori,2027,0,A,xIA,6,0.05,-1
39,1,IAori,2027,0,A,xIA,9,0.05,-1
40,1,IAori,2027,0,A,xIA,12,0.05,-1
41,1,IAori,2028,0.65,A,xIA,3,0.05,-1
42,1,IAori,2028,0,A,xIA,6,0.05,-1
43,1,IAori,2028,0,A,xIA,9,0.05,-1
44,1,IAori,2028,0,A,xIA,12,0.05,-1
45,1,IAori,2029,0.65,A,xIA,3,0.05,-1
46,1,IAori,2029,0,A,xIA,6,0.05,-1
47,1,IAori,2029,0,A,xIA,9,0.05,-1
48,1,IAori,2029,0,A,xIA,12,0.05,-1
49,1,IAori,2030,0.65,A,xIA,3,0.05,-1
50,1,IAori,2030,0,A,xIA,6,0.05,-1
51,1,IAori,2030,0,A,xIA,9,0.05,-1
52,1,IAori,2030,0,A,xIA,12,0.05,-1
53,1,IAori,2031,0.65,A,xIA,3,0.05,-1
54,1,IAori,2031,0,A,xIA,6,0.05,-1
55,1,IAori,2031,0,A,xIA,9,0.05,-1
56,1,IAori,2031,0,A,xIA,12,0.05,-1
57,1,IAori,2032,0.65,A,xIA,3,0.05,-1
58,1,IAori,2032,0,A,xIA,6,0.05,-1
59,1,IAori,2032,0,A,xIA,9,0.05,-1
60,1,IAori,2032,0,A,xIA,12,0.05,-1
61,1,IAori,2033,0.65,A,xIA,3,0.05,-1
62,1,IAori,2033,0,A,xIA,6,0.05,-1
63,1,IAori,2033,0,A,xIA,9,0.05,-1
64,1,IAori,2033,0,A,xIA,12,0.05,-1
65,1,IAori,2034,0.65,A,xIA,3,0.05,-1
66,1,IAori,2034,0,A,xIA,6,0.05,-1
67,1,IAori,2034,0,A,xIA,9,0.05,-1
68,1,IAori,2034,0,A,xIA,12,0.05,-1
69,1,IAori,2035,0.65,A,xIA,3,0.05,-1
70,1,IAori,2035,0,A,xIA,6,0.05,-1
71,1,IAori,2035,0,A,xIA,9,0.05,-1
72,1,IAori,2035,0,A,xIA,12,0.05,-1
73,1,IAori,2036,0.65,A,xIA,3,0.05,-1
74,1,IAori,2036,0,A,xIA,6,0.05,-1
75,1,IAori,2036,0,A,xIA,9,0.05,-1
76,1,IAori,2036,0,A,xIA,12,0.05,-1
77,1,IAori,2037,0.65,A,xIA,3,0.05,-1
78,1,IAori,2037,0,A,xIA,6,0.05,-1
79,1,IAori,2037,0,A,xIA,9,0.05,-1
80,1,IAori,2037,0,A,xIA,12,0.05,-1
81,1,IAori,2038,0.65,A,xIA,3,0.05,-1
82,1,IAori,2038,0,A,xIA,6,0.05,-1
83,1,IAori,2038,0,A,xIA,9,0.05,-1
84,1,IAori,2038,0,A,xIA,12,0.05,-1
85,1,IAori,2039,0.65,A,xIA,3,0.05,-1
86,1,IAori,2039,0,A,xIA,6,0.05,-1
87,1,IAori,2039,0,A,xIA,9,0.05,-1
88,1,IAori,2039,0,A,xIA,12,0.05,-1
89,1,IAori,2040,0.65,A,xIA,3,0.05,-1
90,1,IAori,2040,0,A,xIA,6,0.05,-1
91,1,IAori,2040,0,A,xIA,9,0.05,-1
92,1,IAori,2040,0,A,xIA,12,0.05,-1
93,1,IAori,2041,0.65,A,xIA,3,0.05,-1
94,1,IAori,2041,0,A,xIA,6,0.05,-1
95,1,IAori,2041,0,A,xIA,9,0.05,-1
96,1,IAori,2041,0,A,xIA,12,0.05,-1
97,1,IAori,2042,0.65,A,xIA,3,0.05,-1
98,1,IAori,2042,0,A,xIA,6,0.05,-1
99,1,IAori,2042,0,A,xIA,9,0.05,-1
100,1,IAori,2042,0,A,xIA,12,0.05,-1
85,1,IAori,2043,0.65,A,xIA,3,0.05,-1
86,1,IAori,2043,0,A,xIA,6,0.05,-1
87,1,IAori,2043,0,A,xIA,9,0.05,-1
88,1,IAori,2043,0,A,xIA,12,0.05,-1
89,1,IAori,2044,0.65,A,xIA,3,0.05,-1
90,1,IAori,2044,0,A,xIA,6,0.05,-1
91,1,IAori,2044,0,A,xIA,9,0.05,-1
92,1,IAori,2044,0,A,xIA,12,0.05,-1
93,1,IAori,2045,0.65,A,xIA,3,0.05,-1
94,1,IAori,2045,0,A,xIA,6,0.05,-1
95,1,IAori,2045,0,A,xIA,9,0.05,-1
96,1,IAori,2045,0,A,xIA,12,0.05,-1
97,1,IAori,2046,0.65,A,xIA,3,0.05,-1
98,1,IAori,2046,0,A,xIA,6,0.05,-1
99,1,IAori,2046,0,A,xIA,9,0.05,-1
100,1,IAori,2046,0,A,xIA,12,0.05,-1
101,2,IADel6,2018,0.65,A,xIA,3,0.05,-1
102,2,IADel6,2018,0,A,xIA,6,0.05,-1
103,2,IADel6,2018,0,A,xIA,9,0.05,-1
104,2,IADel6,2018,0,A,xIA,12,0.05,-1
105,2,IADel6,2019,0.65,A,xIA,3,0.05,-1
106,2,IADel6,2019,0,A,xIA,6,0.05,-1
107,2,IADel6,2019,0,A,xIA,9,0.05,-1
108,2,IADel6,2019,0,A,xIA,12,0.05,-1
109,2,IADel6,2020,0,A,xIA,3,0.05,-1
110,2,IADel6,2020,0,A,xIA,6,0.05,-1
111,2,IADel6,2020,0.65,A,xIA,9,0.05,-1
112,2,IADel6,2020,0,A,xIA,12,0.05,-1
113,2,IADel6,2021,0.65,A,xIA,3,0.05,-1
114,2,IADel6,2021,0,A,xIA,6,0.05,-1
115,2,IADel6,2021,0,A,xIA,9,0.05,-1
116,2,IADel6,2021,0,A,xIA,12,0.05,-1
117,2,IADel6,2022,0.65,A,xIA,3,0.05,-1
118,2,IADel6,2022,0,A,xIA,6,0.05,-1
119,2,IADel6,2022,0,A,xIA,9,0.05,-1
120,2,IADel6,2022,0,A,xIA,12,0.05,-1
121,2,IADel6,2023,0.65,A,xIA,3,0.05,-1
122,2,IADel6,2023,0,A,xIA,6,0.05,-1
123,2,IADel6,2023,0,A,xIA,9,0.05,-1
124,2,IADel6,2023,0,A,xIA,12,0.05,-1
125,2,IADel6,2024,0.65,A,xIA,3,0.05,-1
126,2,IADel6,2024,0,A,xIA,6,0.05,-1
127,2,IADel6,2024,0,A,xIA,9,0.05,-1
128,2,IADel6,2024,0,A,xIA,12,0.05,-1
129,2,IADel6,2025,0.65,A,xIA,3,0.05,-1
130,2,IADel6,2025,0,A,xIA,6,0.05,-1
131,2,IADel6,2025,0,A,xIA,9,0.05,-1
132,2,IADel6,2025,0,A,xIA,12,0.05,-1
133,2,IADel6,2026,0.65,A,xIA,3,0.05,-1
134,2,IADel6,2026,0,A,xIA,6,0.05,-1
135,2,IADel6,2026,0,A,xIA,9,0.05,-1
136,2,IADel6,2026,0,A,xIA,12,0.05,-1
137,2,IADel6,2027,0.65,A,xIA,3,0.05,-1
138,2,IADel6,2027,0,A,xIA,6,0.05,-1
139,2,IADel6,2027,0,A,xIA,9,0.05,-1
140,2,IADel6,2027,0,A,xIA,12,0.05,-1
141,2,IADel6,2028,0.65,A,xIA,3,0.05,-1
142,2,IADel6,2028,0,A,xIA,6,0.05,-1
143,2,IADel6,2028,0,A,xIA,9,0.05,-1
144,2,IADel6,2028,0,A,xIA,12,0.05,-1
145,2,IADel6,2029,0.65,A,xIA,3,0.05,-1
146,2,IADel6,2029,0,A,xIA,6,0.05,-1
147,2,IADel6,2029,0,A,xIA,9,0.05,-1
148,2,IADel6,2029,0,A,xIA,12,0.05,-1
149,2,IADel6,2030,0.65,A,xIA,3,0.05,-1
150,2,IADel6,2030,0,A,xIA,6,0.05,-1
151,2,IADel6,2030,0,A,xIA,9,0.05,-1
152,2,IADel6,2030,0,A,xIA,12,0.05,-1
153,2,IADel6,2031,0.65,A,xIA,3,0.05,-1
154,2,IADel6,2031,0,A,xIA,6,0.05,-1
155,2,IADel6,2031,0,A,xIA,9,0.05,-1
156,2,IADel6,2031,0,A,xIA,12,0.05,-1
157,2,IADel6,2032,0.65,A,xIA,3,0.05,-1
158,2,IADel6,2032,0,A,xIA,6,0.05,-1
159,2,IADel6,2032,0,A,xIA,9,0.05,-1
160,2,IADel6,2032,0,A,xIA,12,0.05,-1
161,2,IADel6,2033,0.65,A,xIA,3,0.05,-1
162,2,IADel6,2033,0,A,xIA,6,0.05,-1
163,2,IADel6,2033,0,A,xIA,9,0.05,-1
164,2,IADel6,2033,0,A,xIA,12,0.05,-1
165,2,IADel6,2034,0.65,A,xIA,3,0.05,-1
166,2,IADel6,2034,0,A,xIA,6,0.05,-1
167,2,IADel6,2034,0,A,xIA,9,0.05,-1
168,2,IADel6,2034,0,A,xIA,12,0.05,-1
169,2,IADel6,2035,0.65,A,xIA,3,0.05,-1
170,2,IADel6,2035,0,A,xIA,6,0.05,-1
171,2,IADel6,2035,0,A,xIA,9,0.05,-1
172,2,IADel6,2035,0,A,xIA,12,0.05,-1
173,2,IADel6,2036,0.65,A,xIA,3,0.05,-1
174,2,IADel6,2036,0,A,xIA,6,0.05,-1
175,2,IADel6,2036,0,A,xIA,9,0.05,-1
176,2,IADel6,2036,0,A,xIA,12,0.05,-1
177,2,IADel6,2037,0.65,A,xIA,3,0.05,-1
178,2,IADel6,2037,0,A,xIA,6,0.05,-1
179,2,IADel6,2037,0,A,xIA,9,0.05,-1
180,2,IADel6,2037,0,A,xIA,12,0.05,-1
181,2,IADel6,2038,0.65,A,xIA,3,0.05,-1
182,2,IADel6,2038,0,A,xIA,6,0.05,-1
183,2,IADel6,2038,0,A,xIA,9,0.05,-1
184,2,IADel6,2038,0,A,xIA,12,0.05,-1
185,2,IADel6,2039,0.65,A,xIA,3,0.05,-1
186,2,IADel6,2039,0,A,xIA,6,0.05,-1
187,2,IADel6,2039,0,A,xIA,9,0.05,-1
188,2,IADel6,2039,0,A,xIA,12,0.05,-1
189,2,IADel6,2040,0.65,A,xIA,3,0.05,-1
190,2,IADel6,2040,0,A,xIA,6,0.05,-1
191,2,IADel6,2040,0,A,xIA,9,0.05,-1
192,2,IADel6,2040,0,A,xIA,12,0.05,-1
193,2,IADel6,2041,0.65,A,xIA,3,0.05,-1
194,2,IADel6,2041,0,A,xIA,6,0.05,-1
195,2,IADel6,2041,0,A,xIA,9,0.05,-1
196,2,IADel6,2041,0,A,xIA,12,0.05,-1
197,2,IADel6,2042,0.65,A,xIA,3,0.05,-1
198,2,IADel6,2042,0,A,xIA,6,0.05,-1
199,2,IADel6,2042,0,A,xIA,9,0.05,-1
200,2,IADel6,2042,0,A,xIA,12,0.05,-1
185,2,IADel6,2043,0.65,A,xIA,3,0.05,-1
186,2,IADel6,2043,0,A,xIA,6,0.05,-1
187,2,IADel6,2043,0,A,xIA,9,0.05,-1
188,2,IADel6,2043,0,A,xIA,12,0.05,-1
189,2,IADel6,2044,0.65,A,xIA,3,0.05,-1
190,2,IADel6,2044,0,A,xIA,6,0.05,-1
191,2,IADel6,2044,0,A,xIA,9,0.05,-1
192,2,IADel6,2044,0,A,xIA,12,0.05,-1
193,2,IADel6,2045,0.65,A,xIA,3,0.05,-1
194,2,IADel6,2045,0,A,xIA,6,0.05,-1
195,2,IADel6,2045,0,A,xIA,9,0.05,-1
196,2,IADel6,2045,0,A,xIA,12,0.05,-1
197,2,IADel6,2046,0.65,A,xIA,3,0.05,-1
198,2,IADel6,2046,0,A,xIA,6,0.05,-1
199,2,IADel6,2046,0,A,xIA,9,0.05,-1
200,2,IADel6,2046,0,A,xIA,12,0.05,-1
201,3,IADel12,2018,0.65,A,xIA,3,0.05,-1
202,3,IADel12,2018,0,A,xIA,6,0.05,-1
203,3,IADel12,2018,0,A,xIA,9,0.05,-1
204,3,IADel12,2018,0,A,xIA,12,0.05,-1
205,3,IADel12,2019,0.65,A,xIA,3,0.05,-1
206,3,IADel12,2019,0,A,xIA,6,0.05,-1
207,3,IADel12,2019,0,A,xIA,9,0.05,-1
208,3,IADel12,2019,0,A,xIA,12,0.05,-1
209,3,IADel12,2020,0,A,xIA,3,0.05,-1
210,3,IADel12,2020,0,A,xIA,6,0.05,-1
211,3,IADel12,2020,0,A,xIA,9,0.05,-1
212,3,IADel12,2020,0,A,xIA,12,0.05,-1
213,3,IADel12,2021,0.65,A,xIA,3,0.05,-1
214,3,IADel12,2021,0,A,xIA,6,0.05,-1
215,3,IADel12,2021,0,A,xIA,9,0.05,-1
216,3,IADel12,2021,0,A,xIA,12,0.05,-1
217,3,IADel12,2022,0.65,A,xIA,3,0.05,-1
218,3,IADel12,2022,0,A,xIA,6,0.05,-1
219,3,IADel12,2022,0,A,xIA,9,0.05,-1
220,3,IADel12,2022,0,A,xIA,12,0.05,-1
221,3,IADel12,2023,0.65,A,xIA,3,0.05,-1
222,3,IADel12,2023,0,A,xIA,6,0.05,-1
223,3,IADel12,2023,0,A,xIA,9,0.05,-1
224,3,IADel12,2023,0,A,xIA,12,0.05,-1
225,3,IADel12,2024,0.65,A,xIA,3,0.05,-1
226,3,IADel12,2024,0,A,xIA,6,0.05,-1
227,3,IADel12,2024,0,A,xIA,9,0.05,-1
228,3,IADel12,2024,0,A,xIA,12,0.05,-1
229,3,IADel12,2025,0.65,A,xIA,3,0.05,-1
230,3,IADel12,2025,0,A,xIA,6,0.05,-1
231,3,IADel12,2025,0,A,xIA,9,0.05,-1
232,3,IADel12,2025,0,A,xIA,12,0.05,-1
233,3,IADel12,2026,0.65,A,xIA,3,0.05,-1
234,3,IADel12,2026,0,A,xIA,6,0.05,-1
235,3,IADel12,2026,0,A,xIA,9,0.05,-1
236,3,IADel12,2026,0,A,xIA,12,0.05,-1
237,3,IADel12,2027,0.65,A,xIA,3,0.05,-1
238,3,IADel12,2027,0,A,xIA,6,0.05,-1
239,3,IADel12,2027,0,A,xIA,9,0.05,-1
240,3,IADel12,2027,0,A,xIA,12,0.05,-1
241,3,IADel12,2028,0.65,A,xIA,3,0.05,-1
242,3,IADel12,2028,0,A,xIA,6,0.05,-1
243,3,IADel12,2028,0,A,xIA,9,0.05,-1
244,3,IADel12,2028,0,A,xIA,12,0.05,-1
245,3,IADel12,2029,0.65,A,xIA,3,0.05,-1
246,3,IADel12,2029,0,A,xIA,6,0.05,-1
247,3,IADel12,2029,0,A,xIA,9,0.05,-1
248,3,IADel12,2029,0,A,xIA,12,0.05,-1
249,3,IADel12,2030,0.65,A,xIA,3,0.05,-1
250,3,IADel12,2030,0,A,xIA,6,0.05,-1
251,3,IADel12,2030,0,A,xIA,9,0.05,-1
252,3,IADel12,2030,0,A,xIA,12,0.05,-1
253,3,IADel12,2031,0.65,A,xIA,3,0.05,-1
254,3,IADel12,2031,0,A,xIA,6,0.05,-1
255,3,IADel12,2031,0,A,xIA,9,0.05,-1
256,3,IADel12,2031,0,A,xIA,12,0.05,-1
257,3,IADel12,2032,0.65,A,xIA,3,0.05,-1
258,3,IADel12,2032,0,A,xIA,6,0.05,-1
259,3,IADel12,2032,0,A,xIA,9,0.05,-1
260,3,IADel12,2032,0,A,xIA,12,0.05,-1
261,3,IADel12,2033,0.65,A,xIA,3,0.05,-1
262,3,IADel12,2033,0,A,xIA,6,0.05,-1
263,3,IADel12,2033,0,A,xIA,9,0.05,-1
264,3,IADel12,2033,0,A,xIA,12,0.05,-1
265,3,IADel12,2034,0.65,A,xIA,3,0.05,-1
266,3,IADel12,2034,0,A,xIA,6,0.05,-1
267,3,IADel12,2034,0,A,xIA,9,0.05,-1
268,3,IADel12,2034,0,A,xIA,12,0.05,-1
269,3,IADel12,2035,0.65,A,xIA,3,0.05,-1
270,3,IADel12,2035,0,A,xIA,6,0.05,-1
271,3,IADel12,2035,0,A,xIA,9,0.05,-1
272,3,IADel12,2035,0,A,xIA,12,0.05,-1
273,3,IADel12,2036,0.65,A,xIA,3,0.05,-1
274,3,IADel12,2036,0,A,xIA,6,0.05,-1
275,3,IADel12,2036,0,A,xIA,9,0.05,-1
276,3,IADel12,2036,0,A,xIA,12,0.05,-1
277,3,IADel12,2037,0.65,A,xIA,3,0.05,-1
278,3,IADel12,2037,0,A,xIA,6,0.05,-1
279,3,IADel12,2037,0,A,xIA,9,0.05,-1
280,3,IADel12,2037,0,A,xIA,12,0.05,-1
281,3,IADel12,2038,0.65,A,xIA,3,0.05,-1
282,3,IADel12,2038,0,A,xIA,6,0.05,-1
283,3,IADel12,2038,0,A,xIA,9,0.05,-1
284,3,IADel12,2038,0,A,xIA,12,0.05,-1
285,3,IADel12,2039,0.65,A,xIA,3,0.05,-1
286,3,IADel12,2039,0,A,xIA,6,0.05,-1
287,3,IADel12,2039,0,A,xIA,9,0.05,-1
288,3,IADel12,2039,0,A,xIA,12,0.05,-1
289,3,IADel12,2040,0.65,A,xIA,3,0.05,-1
290,3,IADel12,2040,0,A,xIA,6,0.05,-1
291,3,IADel12,2040,0,A,xIA,9,0.05,-1
292,3,IADel12,2040,0,A,xIA,12,0.05,-1
293,3,IADel12,2041,0.65,A,xIA,3,0.05,-1
294,3,IADel12,2041,0,A,xIA,6,0.05,-1
295,3,IADel12,2041,0,A,xIA,9,0.05,-1
296,3,IADel12,2041,0,A,xIA,12,0.05,-1
297,3,IADel12,2042,0.65,A,xIA,3,0.05,-1
298,3,IADel12,2042,0,A,xIA,6,0.05,-1
299,3,IADel12,2042,0,A,xIA,9,0.05,-1
300,3,IADel12,2042,0,A,xIA,12,0.05,-1
285,3,IADel12,2043,0.65,A,xIA,3,0.05,-1
286,3,IADel12,2043,0,A,xIA,6,0.05,-1
287,3,IADel12,2043,0,A,xIA,9,0.05,-1
288,3,IADel12,2043,0,A,xIA,12,0.05,-1
289,3,IADel12,2044,0.65,A,xIA,3,0.05,-1
290,3,IADel12,2044,0,A,xIA,6,0.05,-1
291,3,IADel12,2044,0,A,xIA,9,0.05,-1
292,3,IADel12,2044,0,A,xIA,12,0.05,-1
293,3,IADel12,2045,0.65,A,xIA,3,0.05,-1
294,3,IADel12,2045,0,A,xIA,6,0.05,-1
295,3,IADel12,2045,0,A,xIA,9,0.05,-1
296,3,IADel12,2045,0,A,xIA,12,0.05,-1
297,3,IADel12,2046,0.65,A,xIA,3,0.05,-1
298,3,IADel12,2046,0,A,xIA,6,0.05,-1
299,3,IADel12,2046,0,A,xIA,9,0.05,-1
300,3,IADel12,2046,0,A,xIA,12,0.05,-1
301,4,IADel18,2018,0.65,A,xIA,3,0.05,-1
302,4,IADel18,2018,0,A,xIA,6,0.05,-1
303,4,IADel18,2018,0,A,xIA,9,0.05,-1
304,4,IADel18,2018,0,A,xIA,12,0.05,-1
305,4,IADel18,2019,0.65,A,xIA,3,0.05,-1
306,4,IADel18,2019,0,A,xIA,6,0.05,-1
307,4,IADel18,2019,0,A,xIA,9,0.05,-1
308,4,IADel18,2019,0,A,xIA,12,0.05,-1
309,4,IADel18,2020,0,A,xIA,3,0.05,-1
310,4,IADel18,2020,0,A,xIA,6,0.05,-1
311,4,IADel18,2020,0,A,xIA,9,0.05,-1
312,4,IADel18,2020,0,A,xIA,12,0.05,-1
313,4,IADel18,2021,0,A,xIA,3,0.05,-1
314,4,IADel18,2021,0,A,xIA,6,0.05,-1
315,4,IADel18,2021,0.65,A,xIA,9,0.05,-1
316,4,IADel18,2021,0,A,xIA,12,0.05,-1
317,4,IADel18,2022,0.65,A,xIA,3,0.05,-1
318,4,IADel18,2022,0,A,xIA,6,0.05,-1
319,4,IADel18,2022,0,A,xIA,9,0.05,-1
320,4,IADel18,2022,0,A,xIA,12,0.05,-1
321,4,IADel18,2023,0.65,A,xIA,3,0.05,-1
322,4,IADel18,2023,0,A,xIA,6,0.05,-1
323,4,IADel18,2023,0,A,xIA,9,0.05,-1
324,4,IADel18,2023,0,A,xIA,12,0.05,-1
325,4,IADel18,2024,0.65,A,xIA,3,0.05,-1
326,4,IADel18,2024,0,A,xIA,6,0.05,-1
327,4,IADel18,2024,0,A,xIA,9,0.05,-1
328,4,IADel18,2024,0,A,xIA,12,0.05,-1
329,4,IADel18,2025,0.65,A,xIA,3,0.05,-1
330,4,IADel18,2025,0,A,xIA,6,0.05,-1
331,4,IADel18,2025,0,A,xIA,9,0.05,-1
332,4,IADel18,2025,0,A,xIA,12,0.05,-1
333,4,IADel18,2026,0.65,A,xIA,3,0.05,-1
334,4,IADel18,2026,0,A,xIA,6,0.05,-1
335,4,IADel18,2026,0,A,xIA,9,0.05,-1
336,4,IADel18,2026,0,A,xIA,12,0.05,-1
337,4,IADel18,2027,0.65,A,xIA,3,0.05,-1
338,4,IADel18,2027,0,A,xIA,6,0.05,-1
339,4,IADel18,2027,0,A,xIA,9,0.05,-1
340,4,IADel18,2027,0,A,xIA,12,0.05,-1
341,4,IADel18,2028,0.65,A,xIA,3,0.05,-1
342,4,IADel18,2028,0,A,xIA,6,0.05,-1
343,4,IADel18,2028,0,A,xIA,9,0.05,-1
344,4,IADel18,2028,0,A,xIA,12,0.05,-1
345,4,IADel18,2029,0.65,A,xIA,3,0.05,-1
346,4,IADel18,2029,0,A,xIA,6,0.05,-1
347,4,IADel18,2029,0,A,xIA,9,0.05,-1
348,4,IADel18,2029,0,A,xIA,12,0.05,-1
349,4,IADel18,2030,0.65,A,xIA,3,0.05,-1
350,4,IADel18,2030,0,A,xIA,6,0.05,-1
351,4,IADel18,2030,0,A,xIA,9,0.05,-1
352,4,IADel18,2030,0,A,xIA,12,0.05,-1
353,4,IADel18,2031,0.65,A,xIA,3,0.05,-1
354,4,IADel18,2031,0,A,xIA,6,0.05,-1
355,4,IADel18,2031,0,A,xIA,9,0.05,-1
356,4,IADel18,2031,0,A,xIA,12,0.05,-1
357,4,IADel18,2032,0.65,A,xIA,3,0.05,-1
358,4,IADel18,2032,0,A,xIA,6,0.05,-1
359,4,IADel18,2032,0,A,xIA,9,0.05,-1
360,4,IADel18,2032,0,A,xIA,12,0.05,-1
361,4,IADel18,2033,0.65,A,xIA,3,0.05,-1
362,4,IADel18,2033,0,A,xIA,6,0.05,-1
363,4,IADel18,2033,0,A,xIA,9,0.05,-1
364,4,IADel18,2033,0,A,xIA,12,0.05,-1
365,4,IADel18,2034,0.65,A,xIA,3,0.05,-1
366,4,IADel18,2034,0,A,xIA,6,0.05,-1
367,4,IADel18,2034,0,A,xIA,9,0.05,-1
368,4,IADel18,2034,0,A,xIA,12,0.05,-1
369,4,IADel18,2035,0.65,A,xIA,3,0.05,-1
370,4,IADel18,2035,0,A,xIA,6,0.05,-1
371,4,IADel18,2035,0,A,xIA,9,0.05,-1
372,4,IADel18,2035,0,A,xIA,12,0.05,-1
373,4,IADel18,2036,0.65,A,xIA,3,0.05,-1
374,4,IADel18,2036,0,A,xIA,6,0.05,-1
375,4,IADel18,2036,0,A,xIA,9,0.05,-1
376,4,IADel18,2036,0,A,xIA,12,0.05,-1
377,4,IADel18,2037,0.65,A,xIA,3,0.05,-1
378,4,IADel18,2037,0,A,xIA,6,0.05,-1
379,4,IADel18,2037,0,A,xIA,9,0.05,-1
380,4,IADel18,2037,0,A,xIA,12,0.05,-1
381,4,IADel18,2038,0.65,A,xIA,3,0.05,-1
382,4,IADel18,2038,0,A,xIA,6,0.05,-1
383,4,IADel18,2038,0,A,xIA,9,0.05,-1
384,4,IADel18,2038,0,A,xIA,12,0.05,-1
385,4,IADel18,2039,0.65,A,xIA,3,0.05,-1
386,4,IADel18,2039,0,A,xIA,6,0.05,-1
387,4,IADel18,2039,0,A,xIA,9,0.05,-1
388,4,IADel18,2039,0,A,xIA,12,0.05,-1
389,4,IADel18,2040,0.65,A,xIA,3,0.05,-1
390,4,IADel18,2040,0,A,xIA,6,0.05,-1
391,4,IADel18,2040,0,A,xIA,9,0.05,-1
392,4,IADel18,2040,0,A,xIA,12,0.05,-1
393,4,IADel18,2041,0.65,A,xIA,3,0.05,-1
394,4,IADel18,2041,0,A,xIA,6,0.05,-1
395,4,IADel18,2041,0,A,xIA,9,0.05,-1
396,4,IADel18,2041,0,A,xIA,12,0.05,-1
397,4,IADel18,2042,0.65,A,xIA,3,0.05,-1
398,4,IADel18,2042,0,A,xIA,6,0.05,-1
399,4,IADel18,2042,0,A,xIA,9,0.05,-1
400,4,IADel18,2042,0,A,xIA,12,0.05,-1
385,4,IADel18,2043,0.65,A,xIA,3,0.05,-1
386,4,IADel18,2043,0,A,xIA,6,0.05,-1
387,4,IADel18,2043,0,A,xIA,9,0.05,-1
388,4,IADel18,2043,0,A,xIA,12,0.05,-1
389,4,IADel18,2044,0.65,A,xIA,3,0.05,-1
390,4,IADel18,2044,0,A,xIA,6,0.05,-1
391,4,IADel18,2044,0,A,xIA,9,0.05,-1
392,4,IADel18,2044,0,A,xIA,12,0.05,-1
393,4,IADel18,2045,0.65,A,xIA,3,0.05,-1
394,4,IADel18,2045,0,A,xIA,6,0.05,-1
395,4,IADel18,2045,0,A,xIA,9,0.05,-1
396,4,IADel18,2045,0,A,xIA,12,0.05,-1
397,4,IADel18,2046,0.65,A,xIA,3,0.05,-1
398,4,IADel18,2046,0,A,xIA,6,0.05,-1
399,4,IADel18,2046,0,A,xIA,9,0.05,-1
400,4,IADel18,2046,0,A,xIA,12,0.05,-1
401,5,IADel24,2018,0.65,A,xIA,3,0.05,-1
402,5,IADel24,2018,0,A,xIA,6,0.05,-1
403,5,IADel24,2018,0,A,xIA,9,0.05,-1
404,5,IADel24,2018,0,A,xIA,12,0.05,-1
405,5,IADel24,2019,0.65,A,xIA,3,0.05,-1
406,5,IADel24,2019,0,A,xIA,6,0.05,-1
407,5,IADel24,2019,0,A,xIA,9,0.05,-1
408,5,IADel24,2019,0,A,xIA,12,0.05,-1
409,5,IADel24,2020,0,A,xIA,3,0.05,-1
410,5,IADel24,2020,0,A,xIA,6,0.05,-1
411,5,IADel24,2020,0,A,xIA,9,0.05,-1
412,5,IADel24,2020,0,A,xIA,12,0.05,-1
413,5,IADel24,2021,0,A,xIA,3,0.05,-1
414,5,IADel24,2021,0,A,xIA,6,0.05,-1
415,5,IADel24,2021,0,A,xIA,9,0.05,-1
416,5,IADel24,2021,0,A,xIA,12,0.05,-1
417,5,IADel24,2022,0.65,A,xIA,3,0.05,-1
418,5,IADel24,2022,0,A,xIA,6,0.05,-1
419,5,IADel24,2022,0,A,xIA,9,0.05,-1
420,5,IADel24,2022,0,A,xIA,12,0.05,-1
421,5,IADel24,2023,0.65,A,xIA,3,0.05,-1
422,5,IADel24,2023,0,A,xIA,6,0.05,-1
423,5,IADel24,2023,0,A,xIA,9,0.05,-1
424,5,IADel24,2023,0,A,xIA,12,0.05,-1
425,5,IADel24,2024,0.65,A,xIA,3,0.05,-1
426,5,IADel24,2024,0,A,xIA,6,0.05,-1
427,5,IADel24,2024,0,A,xIA,9,0.05,-1
428,5,IADel24,2024,0,A,xIA,12,0.05,-1
429,5,IADel24,2025,0.65,A,xIA,3,0.05,-1
430,5,IADel24,2025,0,A,xIA,6,0.05,-1
431,5,IADel24,2025,0,A,xIA,9,0.05,-1
432,5,IADel24,2025,0,A,xIA,12,0.05,-1
433,5,IADel24,2026,0.65,A,xIA,3,0.05,-1
434,5,IADel24,2026,0,A,xIA,6,0.05,-1
435,5,IADel24,2026,0,A,xIA,9,0.05,-1
436,5,IADel24,2026,0,A,xIA,12,0.05,-1
437,5,IADel24,2027,0.65,A,xIA,3,0.05,-1
438,5,IADel24,2027,0,A,xIA,6,0.05,-1
439,5,IADel24,2027,0,A,xIA,9,0.05,-1
440,5,IADel24,2027,0,A,xIA,12,0.05,-1
441,5,IADel24,2028,0.65,A,xIA,3,0.05,-1
442,5,IADel24,2028,0,A,xIA,6,0.05,-1
443,5,IADel24,2028,0,A,xIA,9,0.05,-1
444,5,IADel24,2028,0,A,xIA,12,0.05,-1
445,5,IADel24,2029,0.65,A,xIA,3,0.05,-1
446,5,IADel24,2029,0,A,xIA,6,0.05,-1
447,5,IADel24,2029,0,A,xIA,9,0.05,-1
448,5,IADel24,2029,0,A,xIA,12,0.05,-1
449,5,IADel24,2030,0.65,A,xIA,3,0.05,-1
450,5,IADel24,2030,0,A,xIA,6,0.05,-1
451,5,IADel24,2030,0,A,xIA,9,0.05,-1
452,5,IADel24,2030,0,A,xIA,12,0.05,-1
453,5,IADel24,2031,0.65,A,xIA,3,0.05,-1
454,5,IADel24,2031,0,A,xIA,6,0.05,-1
455,5,IADel24,2031,0,A,xIA,9,0.05,-1
456,5,IADel24,2031,0,A,xIA,12,0.05,-1
457,5,IADel24,2032,0.65,A,xIA,3,0.05,-1
458,5,IADel24,2032,0,A,xIA,6,0.05,-1
459,5,IADel24,2032,0,A,xIA,9,0.05,-1
460,5,IADel24,2032,0,A,xIA,12,0.05,-1
461,5,IADel24,2033,0.65,A,xIA,3,0.05,-1
462,5,IADel24,2033,0,A,xIA,6,0.05,-1
463,5,IADel24,2033,0,A,xIA,9,0.05,-1
464,5,IADel24,2033,0,A,xIA,12,0.05,-1
465,5,IADel24,2034,0.65,A,xIA,3,0.05,-1
466,5,IADel24,2034,0,A,xIA,6,0.05,-1
467,5,IADel24,2034,0,A,xIA,9,0.05,-1
468,5,IADel24,2034,0,A,xIA,12,0.05,-1
469,5,IADel24,2035,0.65,A,xIA,3,0.05,-1
470,5,IADel24,2035,0,A,xIA,6,0.05,-1
471,5,IADel24,2035,0,A,xIA,9,0.05,-1
472,5,IADel24,2035,0,A,xIA,12,0.05,-1
473,5,IADel24,2036,0.65,A,xIA,3,0.05,-1
474,5,IADel24,2036,0,A,xIA,6,0.05,-1
475,5,IADel24,2036,0,A,xIA,9,0.05,-1
476,5,IADel24,2036,0,A,xIA,12,0.05,-1
477,5,IADel24,2037,0.65,A,xIA,3,0.05,-1
478,5,IADel24,2037,0,A,xIA,6,0.05,-1
479,5,IADel24,2037,0,A,xIA,9,0.05,-1
480,5,IADel24,2037,0,A,xIA,12,0.05,-1
481,5,IADel24,2038,0.65,A,xIA,3,0.05,-1
482,5,IADel24,2038,0,A,xIA,6,0.05,-1
483,5,IADel24,2038,0,A,xIA,9,0.05,-1
484,5,IADel24,2038,0,A,xIA,12,0.05,-1
485,5,IADel24,2039,0.65,A,xIA,3,0.05,-1
486,5,IADel24,2039,0,A,xIA,6,0.05,-1
487,5,IADel24,2039,0,A,xIA,9,0.05,-1
488,5,IADel24,2039,0,A,xIA,12,0.05,-1
489,5,IADel24,2040,0.65,A,xIA,3,0.05,-1
490,5,IADel24,2040,0,A,xIA,6,0.05,-1
491,5,IADel24,2040,0,A,xIA,9,0.05,-1
492,5,IADel24,2040,0,A,xIA,12,0.05,-1
493,5,IADel24,2041,0.65,A,xIA,3,0.05,-1
494,5,IADel24,2041,0,A,xIA,6,0.05,-1
495,5,IADel24,2041,0,A,xIA,9,0.05,-1
496,5,IADel24,2041,0,A,xIA,12,0.05,-1
497,5,IADel24,2042,0.65,A,xIA,3,0.05,-1
498,5,IADel24,2042,0,A,xIA,6,0.05,-1
499,5,IADel24,2042,0,A,xIA,9,0.05,-1
500,5,IADel24,2042,0,A,xIA,12,0.05,-1
485,5,IADel24,2043,0.65,A,xIA,3,0.05,-1
486,5,IADel24,2043,0,A,xIA,6,0.05,-1
487,5,IADel24,2043,0,A,xIA,9,0.05,-1
488,5,IADel24,2043,0,A,xIA,12,0.05,-1
489,5,IADel24,2044,0.65,A,xIA,3,0.05,-1
490,5,IADel24,2044,0,A,xIA,6,0.05,-1
491,5,IADel24,2044,0,A,xIA,9,0.05,-1
492,5,IADel24,2044,0,A,xIA,12,0.05,-1
493,5,IADel24,2045,0.65,A,xIA,3,0.05,-1
494,5,IADel24,2045,0,A,xIA,6,0.05,-1
495,5,IADel24,2045,0,A,xIA,9,0.05,-1
496,5,IADel24,2045,0,A,xIA,12,0.05,-1
497,5,IADel24,2046,0.65,A,xIA,3,0.05,-1
498,5,IADel24,2046,0,A,xIA,6,0.05,-1
499,5,IADel24,2046,0,A,xIA,9,0.05,-1
500,5,IADel24,2046,0,A,xIA,12,0.05,-1
501,6,IABIDel6,2018,0.65,A,xIA,3,0.05,-1
502,6,IABIDel6,2018,0,A,xIA,6,0.05,-1
503,6,IABIDel6,2018,0,A,xIA,9,0.05,-1
504,6,IABIDel6,2018,0,A,xIA,12,0.05,-1
505,6,IABIDel6,2019,0.65,A,xIA,3,0.05,-1
506,6,IABIDel6,2019,0,A,xIA,6,0.05,-1
507,6,IABIDel6,2019,0,A,xIA,9,0.05,-1
508,6,IABIDel6,2019,0,A,xIA,12,0.05,-1
509,6,IABIDel6,2020,0,A,xIA,3,0.05,-1
510,6,IABIDel6,2020,0,A,xIA,6,0.05,-1
511,6,IABIDel6,2020,0.65,A,xIA,9,0.05,-1
512,6,IABIDel6,2020,0,A,xIA,12,0.05,-1
513,6,IABIDel6,2021,0.65,A,xIA,3,0.05,-1
514,6,IABIDel6,2021,0,A,xIA,6,0.05,-1
515,6,IABIDel6,2021,0.65,A,xIA,9,0.05,-1
516,6,IABIDel6,2021,0,A,xIA,12,0.05,-1
517,6,IABIDel6,2022,0.65,A,xIA,3,0.05,-1
518,6,IABIDel6,2022,0,A,xIA,6,0.05,-1
519,6,IABIDel6,2022,0.65,A,xIA,9,0.05,-1
520,6,IABIDel6,2022,0,A,xIA,12,0.05,-1
521,6,IABIDel6,2023,0.65,A,xIA,3,0.05,-1
522,6,IABIDel6,2023,0,A,xIA,6,0.05,-1
523,6,IABIDel6,2023,0.65,A,xIA,9,0.05,-1
524,6,IABIDel6,2023,0,A,xIA,12,0.05,-1
525,6,IABIDel6,2024,0.65,A,xIA,3,0.05,-1
526,6,IABIDel6,2024,0,A,xIA,6,0.05,-1
527,6,IABIDel6,2024,0.65,A,xIA,9,0.05,-1
528,6,IABIDel6,2024,0,A,xIA,12,0.05,-1
529,6,IABIDel6,2025,0.65,A,xIA,3,0.05,-1
530,6,IABIDel6,2025,0,A,xIA,6,0.05,-1
531,6,IABIDel6,2025,0.65,A,xIA,9,0.05,-1
532,6,IABIDel6,2025,0,A,xIA,12,0.05,-1
533,6,IABIDel6,2026,0.65,A,xIA,3,0.05,-1
534,6,IABIDel6,2026,0,A,xIA,6,0.05,-1
535,6,IABIDel6,2026,0.65,A,xIA,9,0.05,-1
536,6,IABIDel6,2026,0,A,xIA,12,0.05,-1
537,6,IABIDel6,2027,0.65,A,xIA,3,0.05,-1
538,6,IABIDel6,2027,0,A,xIA,6,0.05,-1
539,6,IABIDel6,2027,0.65,A,xIA,9,0.05,-1
540,6,IABIDel6,2027,0,A,xIA,12,0.05,-1
541,6,IABIDel6,2028,0.65,A,xIA,3,0.05,-1
542,6,IABIDel6,2028,0,A,xIA,6,0.05,-1
543,6,IABIDel6,2028,0.65,A,xIA,9,0.05,-1
544,6,IABIDel6,2028,0,A,xIA,12,0.05,-1
545,6,IABIDel6,2029,0.65,A,xIA,3,0.05,-1
546,6,IABIDel6,2029,0,A,xIA,6,0.05,-1
547,6,IABIDel6,2029,0.65,A,xIA,9,0.05,-1
548,6,IABIDel6,2029,0,A,xIA,12,0.05,-1
549,6,IABIDel6,2030,0.65,A,xIA,3,0.05,-1
550,6,IABIDel6,2030,0,A,xIA,6,0.05,-1
551,6,IABIDel6,2030,0.65,A,xIA,9,0.05,-1
552,6,IABIDel6,2030,0,A,xIA,12,0.05,-1
553,6,IABIDel6,2031,0.65,A,xIA,3,0.05,-1
554,6,IABIDel6,2031,0,A,xIA,6,0.05,-1
555,6,IABIDel6,2031,0.65,A,xIA,9,0.05,-1
556,6,IABIDel6,2031,0,A,xIA,12,0.05,-1
557,6,IABIDel6,2032,0.65,A,xIA,3,0.05,-1
558,6,IABIDel6,2032,0,A,xIA,6,0.05,-1
559,6,IABIDel6,2032,0.65,A,xIA,9,0.05,-1
560,6,IABIDel6,2032,0,A,xIA,12,0.05,-1
561,6,IABIDel6,2033,0.65,A,xIA,3,0.05,-1
562,6,IABIDel6,2033,0,A,xIA,6,0.05,-1
563,6,IABIDel6,2033,0.65,A,xIA,9,0.05,-1
564,6,IABIDel6,2033,0,A,xIA,12,0.05,-1
565,6,IABIDel6,2034,0.65,A,xIA,3,0.05,-1
566,6,IABIDel6,2034,0,A,xIA,6,0.05,-1
567,6,IABIDel6,2034,0.65,A,xIA,9,0.05,-1
568,6,IABIDel6,2034,0,A,xIA,12,0.05,-1
569,6,IABIDel6,2035,0.65,A,xIA,3,0.05,-1
570,6,IABIDel6,2035,0,A,xIA,6,0.05,-1
571,6,IABIDel6,2035,0.65,A,xIA,9,0.05,-1
572,6,IABIDel6,2035,0,A,xIA,12,0.05,-1
573,6,IABIDel6,2036,0.65,A,xIA,3,0.05,-1
574,6,IABIDel6,2036,0,A,xIA,6,0.05,-1
575,6,IABIDel6,2036,0.65,A,xIA,9,0.05,-1
576,6,IABIDel6,2036,0,A,xIA,12,0.05,-1
577,6,IABIDel6,2037,0.65,A,xIA,3,0.05,-1
578,6,IABIDel6,2037,0,A,xIA,6,0.05,-1
579,6,IABIDel6,2037,0.65,A,xIA,9,0.05,-1
580,6,IABIDel6,2037,0,A,xIA,12,0.05,-1
581,6,IABIDel6,2038,0.65,A,xIA,3,0.05,-1
582,6,IABIDel6,2038,0,A,xIA,6,0.05,-1
583,6,IABIDel6,2038,0.65,A,xIA,9,0.05,-1
584,6,IABIDel6,2038,0,A,xIA,12,0.05,-1
585,6,IABIDel6,2039,0.65,A,xIA,3,0.05,-1
586,6,IABIDel6,2039,0,A,xIA,6,0.05,-1
587,6,IABIDel6,2039,0.65,A,xIA,9,0.05,-1
588,6,IABIDel6,2039,0,A,xIA,12,0.05,-1
589,6,IABIDel6,2040,0.65,A,xIA,3,0.05,-1
590,6,IABIDel6,2040,0,A,xIA,6,0.05,-1
591,6,IABIDel6,2040,0.65,A,xIA,9,0.05,-1
592,6,IABIDel6,2040,0,A,xIA,12,0.05,-1
593,6,IABIDel6,2041,0.65,A,xIA,3,0.05,-1
594,6,IABIDel6,2041,0,A,xIA,6,0.05,-1
595,6,IABIDel6,2041,0.65,A,xIA,9,0.05,-1
596,6,IABIDel6,2041,0,A,xIA,12,0.05,-1
597,6,IABIDel6,2042,0.65,A,xIA,3,0.05,-1
598,6,IABIDel6,2042,0,A,xIA,6,0.05,-1
599,6,IABIDel6,2042,0.65,A,xIA,9,0.05,-1
600,6,IABIDel6,2042,0,A,xIA,12,0.05,-1
585,6,IABIDel6,2043,0.65,A,xIA,3,0.05,-1
586,6,IABIDel6,2043,0,A,xIA,6,0.05,-1
587,6,IABIDel6,2043,0.65,A,xIA,9,0.05,-1
588,6,IABIDel6,2043,0,A,xIA,12,0.05,-1
589,6,IABIDel6,2044,0.65,A,xIA,3,0.05,-1
590,6,IABIDel6,2044,0,A,xIA,6,0.05,-1
591,6,IABIDel6,2044,0.65,A,xIA,9,0.05,-1
592,6,IABIDel6,2044,0,A,xIA,12,0.05,-1
593,6,IABIDel6,2045,0.65,A,xIA,3,0.05,-1
594,6,IABIDel6,2045,0,A,xIA,6,0.05,-1
595,6,IABIDel6,2045,0.65,A,xIA,9,0.05,-1
596,6,IABIDel6,2045,0,A,xIA,12,0.05,-1
597,6,IABIDel6,2046,0.65,A,xIA,3,0.05,-1
598,6,IABIDel6,2046,0,A,xIA,6,0.05,-1
599,6,IABIDel6,2046,0.65,A,xIA,9,0.05,-1
600,6,IABIDel6,2046,0,A,xIA,12,0.05,-1
601,7,IABIDel12,2018,0.65,A,xIA,3,0.05,-1
602,7,IABIDel12,2018,0,A,xIA,6,0.05,-1
603,7,IABIDel12,2018,0,A,xIA,9,0.05,-1
604,7,IABIDel12,2018,0,A,xIA,12,0.05,-1
605,7,IABIDel12,2019,0.65,A,xIA,3,0.05,-1
606,7,IABIDel12,2019,0,A,xIA,6,0.05,-1
607,7,IABIDel12,2019,0,A,xIA,9,0.05,-1
608,7,IABIDel12,2019,0,A,xIA,12,0.05,-1
609,7,IABIDel12,2020,0,A,xIA,3,0.05,-1
610,7,IABIDel12,2020,0,A,xIA,6,0.05,-1
611,7,IABIDel12,2020,0,A,xIA,9,0.05,-1
612,7,IABIDel12,2020,0,A,xIA,12,0.05,-1
613,7,IABIDel12,2021,0.65,A,xIA,3,0.05,-1
614,7,IABIDel12,2021,0,A,xIA,6,0.05,-1
615,7,IABIDel12,2021,0.65,A,xIA,9,0.05,-1
616,7,IABIDel12,2021,0,A,xIA,12,0.05,-1
617,7,IABIDel12,2022,0.65,A,xIA,3,0.05,-1
618,7,IABIDel12,2022,0,A,xIA,6,0.05,-1
619,7,IABIDel12,2022,0.65,A,xIA,9,0.05,-1
620,7,IABIDel12,2022,0,A,xIA,12,0.05,-1
621,7,IABIDel12,2023,0.65,A,xIA,3,0.05,-1
622,7,IABIDel12,2023,0,A,xIA,6,0.05,-1
623,7,IABIDel12,2023,0.65,A,xIA,9,0.05,-1
624,7,IABIDel12,2023,0,A,xIA,12,0.05,-1
625,7,IABIDel12,2024,0.65,A,xIA,3,0.05,-1
626,7,IABIDel12,2024,0,A,xIA,6,0.05,-1
627,7,IABIDel12,2024,0.65,A,xIA,9,0.05,-1
628,7,IABIDel12,2024,0,A,xIA,12,0.05,-1
629,7,IABIDel12,2025,0.65,A,xIA,3,0.05,-1
630,7,IABIDel12,2025,0,A,xIA,6,0.05,-1
631,7,IABIDel12,2025,0.65,A,xIA,9,0.05,-1
632,7,IABIDel12,2025,0,A,xIA,12,0.05,-1
633,7,IABIDel12,2026,0.65,A,xIA,3,0.05,-1
634,7,IABIDel12,2026,0,A,xIA,6,0.05,-1
635,7,IABIDel12,2026,0.65,A,xIA,9,0.05,-1
636,7,IABIDel12,2026,0,A,xIA,12,0.05,-1
637,7,IABIDel12,2027,0.65,A,xIA,3,0.05,-1
638,7,IABIDel12,2027,0,A,xIA,6,0.05,-1
639,7,IABIDel12,2027,0.65,A,xIA,9,0.05,-1
640,7,IABIDel12,2027,0,A,xIA,12,0.05,-1
641,7,IABIDel12,2028,0.65,A,xIA,3,0.05,-1
642,7,IABIDel12,2028,0,A,xIA,6,0.05,-1
643,7,IABIDel12,2028,0.65,A,xIA,9,0.05,-1
644,7,IABIDel12,2028,0,A,xIA,12,0.05,-1
645,7,IABIDel12,2029,0.65,A,xIA,3,0.05,-1
646,7,IABIDel12,2029,0,A,xIA,6,0.05,-1
647,7,IABIDel12,2029,0.65,A,xIA,9,0.05,-1
648,7,IABIDel12,2029,0,A,xIA,12,0.05,-1
649,7,IABIDel12,2030,0.65,A,xIA,3,0.05,-1
650,7,IABIDel12,2030,0,A,xIA,6,0.05,-1
651,7,IABIDel12,2030,0.65,A,xIA,9,0.05,-1
652,7,IABIDel12,2030,0,A,xIA,12,0.05,-1
653,7,IABIDel12,2031,0.65,A,xIA,3,0.05,-1
654,7,IABIDel12,2031,0,A,xIA,6,0.05,-1
655,7,IABIDel12,2031,0.65,A,xIA,9,0.05,-1
656,7,IABIDel12,2031,0,A,xIA,12,0.05,-1
657,7,IABIDel12,2032,0.65,A,xIA,3,0.05,-1
658,7,IABIDel12,2032,0,A,xIA,6,0.05,-1
659,7,IABIDel12,2032,0.65,A,xIA,9,0.05,-1
660,7,IABIDel12,2032,0,A,xIA,12,0.05,-1
661,7,IABIDel12,2033,0.65,A,xIA,3,0.05,-1
662,7,IABIDel12,2033,0,A,xIA,6,0.05,-1
663,7,IABIDel12,2033,0.65,A,xIA,9,0.05,-1
664,7,IABIDel12,2033,0,A,xIA,12,0.05,-1
665,7,IABIDel12,2034,0.65,A,xIA,3,0.05,-1
666,7,IABIDel12,2034,0,A,xIA,6,0.05,-1
667,7,IABIDel12,2034,0.65,A,xIA,9,0.05,-1
668,7,IABIDel12,2034,0,A,xIA,12,0.05,-1
669,7,IABIDel12,2035,0.65,A,xIA,3,0.05,-1
670,7,IABIDel12,2035,0,A,xIA,6,0.05,-1
671,7,IABIDel12,2035,0.65,A,xIA,9,0.05,-1
672,7,IABIDel12,2035,0,A,xIA,12,0.05,-1
673,7,IABIDel12,2036,0.65,A,xIA,3,0.05,-1
674,7,IABIDel12,2036,0,A,xIA,6,0.05,-1
675,7,IABIDel12,2036,0.65,A,xIA,9,0.05,-1
676,7,IABIDel12,2036,0,A,xIA,12,0.05,-1
677,7,IABIDel12,2037,0.65,A,xIA,3,0.05,-1
678,7,IABIDel12,2037,0,A,xIA,6,0.05,-1
679,7,IABIDel12,2037,0.65,A,xIA,9,0.05,-1
680,7,IABIDel12,2037,0,A,xIA,12,0.05,-1
681,7,IABIDel12,2038,0.65,A,xIA,3,0.05,-1
682,7,IABIDel12,2038,0,A,xIA,6,0.05,-1
683,7,IABIDel12,2038,0.65,A,xIA,9,0.05,-1
684,7,IABIDel12,2038,0,A,xIA,12,0.05,-1
685,7,IABIDel12,2039,0.65,A,xIA,3,0.05,-1
686,7,IABIDel12,2039,0,A,xIA,6,0.05,-1
687,7,IABIDel12,2039,0.65,A,xIA,9,0.05,-1
688,7,IABIDel12,2039,0,A,xIA,12,0.05,-1
689,7,IABIDel12,2040,0.65,A,xIA,3,0.05,-1
690,7,IABIDel12,2040,0,A,xIA,6,0.05,-1
691,7,IABIDel12,2040,0.65,A,xIA,9,0.05,-1
692,7,IABIDel12,2040,0,A,xIA,12,0.05,-1
693,7,IABIDel12,2041,0.65,A,xIA,3,0.05,-1
694,7,IABIDel12,2041,0,A,xIA,6,0.05,-1
695,7,IABIDel12,2041,0.65,A,xIA,9,0.05,-1
696,7,IABIDel12,2041,0,A,xIA,12,0.05,-1
697,7,IABIDel12,2042,0.65,A,xIA,3,0.05,-1
698,7,IABIDel12,2042,0,A,xIA,6,0.05,-1
699,7,IABIDel12,2042,0.65,A,xIA,9,0.05,-1
700,7,IABIDel12,2042,0,A,xIA,12,0.05,-1
685,7,IABIDel12,2043,0.65,A,xIA,3,0.05,-1
686,7,IABIDel12,2043,0,A,xIA,6,0.05,-1
687,7,IABIDel12,2043,0.65,A,xIA,9,0.05,-1
688,7,IABIDel12,2043,0,A,xIA,12,0.05,-1
689,7,IABIDel12,2044,0.65,A,xIA,3,0.05,-1
690,7,IABIDel12,2044,0,A,xIA,6,0.05,-1
691,7,IABIDel12,2044,0.65,A,xIA,9,0.05,-1
692,7,IABIDel12,2044,0,A,xIA,12,0.05,-1
693,7,IABIDel12,2045,0.65,A,xIA,3,0.05,-1
694,7,IABIDel12,2045,0,A,xIA,6,0.05,-1
695,7,IABIDel12,2045,0.65,A,xIA,9,0.05,-1
696,7,IABIDel12,2045,0,A,xIA,12,0.05,-1
697,7,IABIDel12,2046,0.65,A,xIA,3,0.05,-1
698,7,IABIDel12,2046,0,A,xIA,6,0.05,-1
699,7,IABIDel12,2046,0.65,A,xIA,9,0.05,-1
700,7,IABIDel12,2046,0,A,xIA,12,0.05,-1
701,8,IABIDel18,2018,0.65,A,xIA,3,0.05,-1
702,8,IABIDel18,2018,0,A,xIA,6,0.05,-1
703,8,IABIDel18,2018,0,A,xIA,9,0.05,-1
704,8,IABIDel18,2018,0,A,xIA,12,0.05,-1
705,8,IABIDel18,2019,0.65,A,xIA,3,0.05,-1
706,8,IABIDel18,2019,0,A,xIA,6,0.05,-1
707,8,IABIDel18,2019,0,A,xIA,9,0.05,-1
708,8,IABIDel18,2019,0,A,xIA,12,0.05,-1
709,8,IABIDel18,2020,0,A,xIA,3,0.05,-1
710,8,IABIDel18,2020,0,A,xIA,6,0.05,-1
711,8,IABIDel18,2020,0,A,xIA,9,0.05,-1
712,8,IABIDel18,2020,0,A,xIA,12,0.05,-1
713,8,IABIDel18,2021,0,A,xIA,3,0.05,-1
714,8,IABIDel18,2021,0,A,xIA,6,0.05,-1
715,8,IABIDel18,2021,0.65,A,xIA,9,0.05,-1
716,8,IABIDel18,2021,0,A,xIA,12,0.05,-1
717,8,IABIDel18,2022,0.65,A,xIA,3,0.05,-1
718,8,IABIDel18,2022,0,A,xIA,6,0.05,-1
719,8,IABIDel18,2022,0.65,A,xIA,9,0.05,-1
720,8,IABIDel18,2022,0,A,xIA,12,0.05,-1
721,8,IABIDel18,2023,0.65,A,xIA,3,0.05,-1
722,8,IABIDel18,2023,0,A,xIA,6,0.05,-1
723,8,IABIDel18,2023,0.65,A,xIA,9,0.05,-1
724,8,IABIDel18,2023,0,A,xIA,12,0.05,-1
725,8,IABIDel18,2024,0.65,A,xIA,3,0.05,-1
726,8,IABIDel18,2024,0,A,xIA,6,0.05,-1
727,8,IABIDel18,2024,0.65,A,xIA,9,0.05,-1
728,8,IABIDel18,2024,0,A,xIA,12,0.05,-1
729,8,IABIDel18,2025,0.65,A,xIA,3,0.05,-1
730,8,IABIDel18,2025,0,A,xIA,6,0.05,-1
731,8,IABIDel18,2025,0.65,A,xIA,9,0.05,-1
732,8,IABIDel18,2025,0,A,xIA,12,0.05,-1
733,8,IABIDel18,2026,0.65,A,xIA,3,0.05,-1
734,8,IABIDel18,2026,0,A,xIA,6,0.05,-1
735,8,IABIDel18,2026,0.65,A,xIA,9,0.05,-1
736,8,IABIDel18,2026,0,A,xIA,12,0.05,-1
737,8,IABIDel18,2027,0.65,A,xIA,3,0.05,-1
738,8,IABIDel18,2027,0,A,xIA,6,0.05,-1
739,8,IABIDel18,2027,0.65,A,xIA,9,0.05,-1
740,8,IABIDel18,2027,0,A,xIA,12,0.05,-1
741,8,IABIDel18,2028,0.65,A,xIA,3,0.05,-1
742,8,IABIDel18,2028,0,A,xIA,6,0.05,-1
743,8,IABIDel18,2028,0.65,A,xIA,9,0.05,-1
744,8,IABIDel18,2028,0,A,xIA,12,0.05,-1
745,8,IABIDel18,2029,0.65,A,xIA,3,0.05,-1
746,8,IABIDel18,2029,0,A,xIA,6,0.05,-1
747,8,IABIDel18,2029,0.65,A,xIA,9,0.05,-1
748,8,IABIDel18,2029,0,A,xIA,12,0.05,-1
749,8,IABIDel18,2030,0.65,A,xIA,3,0.05,-1
750,8,IABIDel18,2030,0,A,xIA,6,0.05,-1
751,8,IABIDel18,2030,0.65,A,xIA,9,0.05,-1
752,8,IABIDel18,2030,0,A,xIA,12,0.05,-1
753,8,IABIDel18,2031,0.65,A,xIA,3,0.05,-1
754,8,IABIDel18,2031,0,A,xIA,6,0.05,-1
755,8,IABIDel18,2031,0.65,A,xIA,9,0.05,-1
756,8,IABIDel18,2031,0,A,xIA,12,0.05,-1
757,8,IABIDel18,2032,0.65,A,xIA,3,0.05,-1
758,8,IABIDel18,2032,0,A,xIA,6,0.05,-1
759,8,IABIDel18,2032,0.65,A,xIA,9,0.05,-1
760,8,IABIDel18,2032,0,A,xIA,12,0.05,-1
761,8,IABIDel18,2033,0.65,A,xIA,3,0.05,-1
762,8,IABIDel18,2033,0,A,xIA,6,0.05,-1
763,8,IABIDel18,2033,0.65,A,xIA,9,0.05,-1
764,8,IABIDel18,2033,0,A,xIA,12,0.05,-1
765,8,IABIDel18,2034,0.65,A,xIA,3,0.05,-1
766,8,IABIDel18,2034,0,A,xIA,6,0.05,-1
767,8,IABIDel18,2034,0.65,A,xIA,9,0.05,-1
768,8,IABIDel18,2034,0,A,xIA,12,0.05,-1
769,8,IABIDel18,2035,0.65,A,xIA,3,0.05,-1
770,8,IABIDel18,2035,0,A,xIA,6,0.05,-1
771,8,IABIDel18,2035,0.65,A,xIA,9,0.05,-1
772,8,IABIDel18,2035,0,A,xIA,12,0.05,-1
773,8,IABIDel18,2036,0.65,A,xIA,3,0.05,-1
774,8,IABIDel18,2036,0,A,xIA,6,0.05,-1
775,8,IABIDel18,2036,0.65,A,xIA,9,0.05,-1
776,8,IABIDel18,2036,0,A,xIA,12,0.05,-1
777,8,IABIDel18,2037,0.65,A,xIA,3,0.05,-1
778,8,IABIDel18,2037,0,A,xIA,6,0.05,-1
779,8,IABIDel18,2037,0.65,A,xIA,9,0.05,-1
780,8,IABIDel18,2037,0,A,xIA,12,0.05,-1
781,8,IABIDel18,2038,0.65,A,xIA,3,0.05,-1
782,8,IABIDel18,2038,0,A,xIA,6,0.05,-1
783,8,IABIDel18,2038,0.65,A,xIA,9,0.05,-1
784,8,IABIDel18,2038,0,A,xIA,12,0.05,-1
785,8,IABIDel18,2039,0.65,A,xIA,3,0.05,-1
786,8,IABIDel18,2039,0,A,xIA,6,0.05,-1
787,8,IABIDel18,2039,0.65,A,xIA,9,0.05,-1
788,8,IABIDel18,2039,0,A,xIA,12,0.05,-1
789,8,IABIDel18,2040,0.65,A,xIA,3,0.05,-1
790,8,IABIDel18,2040,0,A,xIA,6,0.05,-1
791,8,IABIDel18,2040,0.65,A,xIA,9,0.05,-1
792,8,IABIDel18,2040,0,A,xIA,12,0.05,-1
793,8,IABIDel18,2041,0.65,A,xIA,3,0.05,-1
794,8,IABIDel18,2041,0,A,xIA,6,0.05,-1
795,8,IABIDel18,2041,0.65,A,xIA,9,0.05,-1
796,8,IABIDel18,2041,0,A,xIA,12,0.05,-1
797,8,IABIDel18,2042,0.65,A,xIA,3,0.05,-1
798,8,IABIDel18,2042,0,A,xIA,6,0.05,-1
799,8,IABIDel18,2042,0.65,A,xIA,9,0.05,-1
800,8,IABIDel18,2042,0,A,xIA,12,0.05,-1
785,8,IABIDel18,2043,0.65,A,xIA,3,0.05,-1
786,8,IABIDel18,2043,0,A,xIA,6,0.05,-1
787,8,IABIDel18,2043,0.65,A,xIA,9,0.05,-1
788,8,IABIDel18,2043,0,A,xIA,12,0.05,-1
789,8,IABIDel18,2044,0.65,A,xIA,3,0.05,-1
790,8,IABIDel18,2044,0,A,xIA,6,0.05,-1
791,8,IABIDel18,2044,0.65,A,xIA,9,0.05,-1
792,8,IABIDel18,2044,0,A,xIA,12,0.05,-1
793,8,IABIDel18,2045,0.65,A,xIA,3,0.05,-1
794,8,IABIDel18,2045,0,A,xIA,6,0.05,-1
795,8,IABIDel18,2045,0.65,A,xIA,9,0.05,-1
796,8,IABIDel18,2045,0,A,xIA,12,0.05,-1
797,8,IABIDel18,2046,0.65,A,xIA,3,0.05,-1
798,8,IABIDel18,2046,0,A,xIA,6,0.05,-1
799,8,IABIDel18,2046,0.65,A,xIA,9,0.05,-1
800,8,IABIDel18,2046,0,A,xIA,12,0.05,-1
801,9,IABIDel24,2018,0.65,A,xIA,3,0.05,-1
802,9,IABIDel24,2018,0,A,xIA,6,0.05,-1
803,9,IABIDel24,2018,0,A,xIA,9,0.05,-1
804,9,IABIDel24,2018,0,A,xIA,12,0.05,-1
805,9,IABIDel24,2019,0.65,A,xIA,3,0.05,-1
806,9,IABIDel24,2019,0,A,xIA,6,0.05,-1
807,9,IABIDel24,2019,0,A,xIA,9,0.05,-1
808,9,IABIDel24,2019,0,A,xIA,12,0.05,-1
809,9,IABIDel24,2020,0,A,xIA,3,0.05,-1
810,9,IABIDel24,2020,0,A,xIA,6,0.05,-1
811,9,IABIDel24,2020,0,A,xIA,9,0.05,-1
812,9,IABIDel24,2020,0,A,xIA,12,0.05,-1
813,9,IABIDel24,2021,0,A,xIA,3,0.05,-1
814,9,IABIDel24,2021,0,A,xIA,6,0.05,-1
815,9,IABIDel24,2021,0,A,xIA,9,0.05,-1
816,9,IABIDel24,2021,0,A,xIA,12,0.05,-1
817,9,IABIDel24,2022,0.65,A,xIA,3,0.05,-1
818,9,IABIDel24,2022,0,A,xIA,6,0.05,-1
819,9,IABIDel24,2022,0.65,A,xIA,9,0.05,-1
820,9,IABIDel24,2022,0,A,xIA,12,0.05,-1
821,9,IABIDel24,2023,0.65,A,xIA,3,0.05,-1
822,9,IABIDel24,2023,0,A,xIA,6,0.05,-1
823,9,IABIDel24,2023,0.65,A,xIA,9,0.05,-1
824,9,IABIDel24,2023,0,A,xIA,12,0.05,-1
825,9,IABIDel24,2024,0.65,A,xIA,3,0.05,-1
826,9,IABIDel24,2024,0,A,xIA,6,0.05,-1
827,9,IABIDel24,2024,0.65,A,xIA,9,0.05,-1
828,9,IABIDel24,2024,0,A,xIA,12,0.05,-1
829,9,IABIDel24,2025,0.65,A,xIA,3,0.05,-1
830,9,IABIDel24,2025,0,A,xIA,6,0.05,-1
831,9,IABIDel24,2025,0.65,A,xIA,9,0.05,-1
832,9,IABIDel24,2025,0,A,xIA,12,0.05,-1
833,9,IABIDel24,2026,0.65,A,xIA,3,0.05,-1
834,9,IABIDel24,2026,0,A,xIA,6,0.05,-1
835,9,IABIDel24,2026,0.65,A,xIA,9,0.05,-1
836,9,IABIDel24,2026,0,A,xIA,12,0.05,-1
837,9,IABIDel24,2027,0.65,A,xIA,3,0.05,-1
838,9,IABIDel24,2027,0,A,xIA,6,0.05,-1
839,9,IABIDel24,2027,0.65,A,xIA,9,0.05,-1
840,9,IABIDel24,2027,0,A,xIA,12,0.05,-1
841,9,IABIDel24,2028,0.65,A,xIA,3,0.05,-1
842,9,IABIDel24,2028,0,A,xIA,6,0.05,-1
843,9,IABIDel24,2028,0.65,A,xIA,9,0.05,-1
844,9,IABIDel24,2028,0,A,xIA,12,0.05,-1
845,9,IABIDel24,2029,0.65,A,xIA,3,0.05,-1
846,9,IABIDel24,2029,0,A,xIA,6,0.05,-1
847,9,IABIDel24,2029,0.65,A,xIA,9,0.05,-1
848,9,IABIDel24,2029,0,A,xIA,12,0.05,-1
849,9,IABIDel24,2030,0.65,A,xIA,3,0.05,-1
850,9,IABIDel24,2030,0,A,xIA,6,0.05,-1
851,9,IABIDel24,2030,0.65,A,xIA,9,0.05,-1
852,9,IABIDel24,2030,0,A,xIA,12,0.05,-1
853,9,IABIDel24,2031,0.65,A,xIA,3,0.05,-1
854,9,IABIDel24,2031,0,A,xIA,6,0.05,-1
855,9,IABIDel24,2031,0.65,A,xIA,9,0.05,-1
856,9,IABIDel24,2031,0,A,xIA,12,0.05,-1
857,9,IABIDel24,2032,0.65,A,xIA,3,0.05,-1
858,9,IABIDel24,2032,0,A,xIA,6,0.05,-1
859,9,IABIDel24,2032,0.65,A,xIA,9,0.05,-1
860,9,IABIDel24,2032,0,A,xIA,12,0.05,-1
861,9,IABIDel24,2033,0.65,A,xIA,3,0.05,-1
862,9,IABIDel24,2033,0,A,xIA,6,0.05,-1
863,9,IABIDel24,2033,0.65,A,xIA,9,0.05,-1
864,9,IABIDel24,2033,0,A,xIA,12,0.05,-1
865,9,IABIDel24,2034,0.65,A,xIA,3,0.05,-1
866,9,IABIDel24,2034,0,A,xIA,6,0.05,-1
867,9,IABIDel24,2034,0.65,A,xIA,9,0.05,-1
868,9,IABIDel24,2034,0,A,xIA,12,0.05,-1
869,9,IABIDel24,2035,0.65,A,xIA,3,0.05,-1
870,9,IABIDel24,2035,0,A,xIA,6,0.05,-1
871,9,IABIDel24,2035,0.65,A,xIA,9,0.05,-1
872,9,IABIDel24,2035,0,A,xIA,12,0.05,-1
873,9,IABIDel24,2036,0.65,A,xIA,3,0.05,-1
874,9,IABIDel24,2036,0,A,xIA,6,0.05,-1
875,9,IABIDel24,2036,0.65,A,xIA,9,0.05,-1
876,9,IABIDel24,2036,0,A,xIA,12,0.05,-1
877,9,IABIDel24,2037,0.65,A,xIA,3,0.05,-1
878,9,IABIDel24,2037,0,A,xIA,6,0.05,-1
879,9,IABIDel24,2037,0.65,A,xIA,9,0.05,-1
880,9,IABIDel24,2037,0,A,xIA,12,0.05,-1
881,9,IABIDel24,2038,0.65,A,xIA,3,0.05,-1
882,9,IABIDel24,2038,0,A,xIA,6,0.05,-1
883,9,IABIDel24,2038,0.65,A,xIA,9,0.05,-1
884,9,IABIDel24,2038,0,A,xIA,12,0.05,-1
885,9,IABIDel24,2039,0.65,A,xIA,3,0.05,-1
886,9,IABIDel24,2039,0,A,xIA,6,0.05,-1
887,9,IABIDel24,2039,0.65,A,xIA,9,0.05,-1
888,9,IABIDel24,2039,0,A,xIA,12,0.05,-1
889,9,IABIDel24,2040,0.65,A,xIA,3,0.05,-1
890,9,IABIDel24,2040,0,A,xIA,6,0.05,-1
891,9,IABIDel24,2040,0.65,A,xIA,9,0.05,-1
892,9,IABIDel24,2040,0,A,xIA,12,0.05,-1
893,9,IABIDel24,2041,0.65,A,xIA,3,0.05,-1
894,9,IABIDel24,2041,0,A,xIA,6,0.05,-1
895,9,IABIDel24,2041,0.65,A,xIA,9,0.05,-1
896,9,IABIDel24,2041,0,A,xIA,12,0.05,-1
897,9,IABIDel24,2042,0.65,A,xIA,3,0.05,-1
898,9,IABIDel24,2042,0,A,xIA,6,0.05,-1
899,9,IABIDel24,2042,0.65,A,xIA,9,0.05,-1
885,9,IABIDel24,2043,0.65,A,xIA,3,0.05,-1
886,9,IABIDel24,2043,0,A,xIA,6,0.05,-1
887,9,IABIDel24,2043,0.65,A,xIA,9,0.05,-1
888,9,IABIDel24,2043,0,A,xIA,12,0.05,-1
889,9,IABIDel24,2044,0.65,A,xIA,3,0.05,-1
890,9,IABIDel24,2044,0,A,xIA,6,0.05,-1
891,9,IABIDel24,2044,0.65,A,xIA,9,0.05,-1
892,9,IABIDel24,2044,0,A,xIA,12,0.05,-1
893,9,IABIDel24,2045,0.65,A,xIA,3,0.05,-1
894,9,IABIDel24,2045,0,A,xIA,6,0.05,-1
895,9,IABIDel24,2045,0.65,A,xIA,9,0.05,-1
896,9,IABIDel24,2045,0,A,xIA,12,0.05,-1
897,9,IABIDel24,2046,0.65,A,xIA,3,0.05,-1
898,9,IABIDel24,2046,0,A,xIA,6,0.05,-1
899,9,IABIDel24,2046,0.65,A,xIA,9,0.05,-1
900,9,IABIDel24,2046,0,A,xIA,12,0.05,-1
901,10,IACovDel6,2018,0.65,A,xIA,3,0.05,-1
902,10,IACovDel6,2018,0,A,xIA,6,0.05,-1
903,10,IACovDel6,2018,0,A,xIA,9,0.05,-1
904,10,IACovDel6,2018,0,A,xIA,12,0.05,-1
905,10,IACovDel6,2019,0.65,A,xIA,3,0.05,-1
906,10,IACovDel6,2019,0,A,xIA,6,0.05,-1
907,10,IACovDel6,2019,0,A,xIA,9,0.05,-1
908,10,IACovDel6,2019,0,A,xIA,12,0.05,-1
909,10,IACovDel6,2020,0,A,xIA,3,0.05,-1
910,10,IACovDel6,2020,0,A,xIA,6,0.05,-1
911,10,IACovDel6,2020,0.8,A,xIA,9,0.05,-1
912,10,IACovDel6,2020,0,A,xIA,12,0.05,-1
913,10,IACovDel6,2021,0.8,A,xIA,3,0.05,-1
914,10,IACovDel6,2021,0,A,xIA,6,0.05,-1
915,10,IACovDel6,2021,0,A,xIA,9,0.05,-1
916,10,IACovDel6,2021,0,A,xIA,12,0.05,-1
917,10,IACovDel6,2022,0.8,A,xIA,3,0.05,-1
918,10,IACovDel6,2022,0,A,xIA,6,0.05,-1
919,10,IACovDel6,2022,0,A,xIA,9,0.05,-1
920,10,IACovDel6,2022,0,A,xIA,12,0.05,-1
921,10,IACovDel6,2023,0.8,A,xIA,3,0.05,-1
922,10,IACovDel6,2023,0,A,xIA,6,0.05,-1
923,10,IACovDel6,2023,0,A,xIA,9,0.05,-1
924,10,IACovDel6,2023,0,A,xIA,12,0.05,-1
925,10,IACovDel6,2024,0.8,A,xIA,3,0.05,-1
926,10,IACovDel6,2024,0,A,xIA,6,0.05,-1
927,10,IACovDel6,2024,0,A,xIA,9,0.05,-1
928,10,IACovDel6,2024,0,A,xIA,12,0.05,-1
929,10,IACovDel6,2025,0.8,A,xIA,3,0.05,-1
930,10,IACovDel6,2025,0,A,xIA,6,0.05,-1
931,10,IACovDel6,2025,0,A,xIA,9,0.05,-1
932,10,IACovDel6,2025,0,A,xIA,12,0.05,-1
933,10,IACovDel6,2026,0.8,A,xIA,3,0.05,-1
934,10,IACovDel6,2026,0,A,xIA,6,0.05,-1
935,10,IACovDel6,2026,0,A,xIA,9,0.05,-1
936,10,IACovDel6,2026,0,A,xIA,12,0.05,-1
937,10,IACovDel6,2027,0.8,A,xIA,3,0.05,-1
938,10,IACovDel6,2027,0,A,xIA,6,0.05,-1
939,10,IACovDel6,2027,0,A,xIA,9,0.05,-1
940,10,IACovDel6,2027,0,A,xIA,12,0.05,-1
941,10,IACovDel6,2028,0.8,A,xIA,3,0.05,-1
942,10,IACovDel6,2028,0,A,xIA,6,0.05,-1
943,10,IACovDel6,2028,0,A,xIA,9,0.05,-1
944,10,IACovDel6,2028,0,A,xIA,12,0.05,-1
945,10,IACovDel6,2029,0.8,A,xIA,3,0.05,-1
946,10,IACovDel6,2029,0,A,xIA,6,0.05,-1
947,10,IACovDel6,2029,0,A,xIA,9,0.05,-1
948,10,IACovDel6,2029,0,A,xIA,12,0.05,-1
949,10,IACovDel6,2030,0.8,A,xIA,3,0.05,-1
950,10,IACovDel6,2030,0,A,xIA,6,0.05,-1
951,10,IACovDel6,2030,0,A,xIA,9,0.05,-1
952,10,IACovDel6,2030,0,A,xIA,12,0.05,-1
953,10,IACovDel6,2031,0.8,A,xIA,3,0.05,-1
954,10,IACovDel6,2031,0,A,xIA,6,0.05,-1
955,10,IACovDel6,2031,0,A,xIA,9,0.05,-1
956,10,IACovDel6,2031,0,A,xIA,12,0.05,-1
957,10,IACovDel6,2032,0.8,A,xIA,3,0.05,-1
958,10,IACovDel6,2032,0,A,xIA,6,0.05,-1
959,10,IACovDel6,2032,0,A,xIA,9,0.05,-1
960,10,IACovDel6,2032,0,A,xIA,12,0.05,-1
961,10,IACovDel6,2033,0.8,A,xIA,3,0.05,-1
962,10,IACovDel6,2033,0,A,xIA,6,0.05,-1
963,10,IACovDel6,2033,0,A,xIA,9,0.05,-1
964,10,IACovDel6,2033,0,A,xIA,12,0.05,-1
965,10,IACovDel6,2034,0.8,A,xIA,3,0.05,-1
966,10,IACovDel6,2034,0,A,xIA,6,0.05,-1
967,10,IACovDel6,2034,0,A,xIA,9,0.05,-1
968,10,IACovDel6,2034,0,A,xIA,12,0.05,-1
969,10,IACovDel6,2035,0.8,A,xIA,3,0.05,-1
970,10,IACovDel6,2035,0,A,xIA,6,0.05,-1
971,10,IACovDel6,2035,0,A,xIA,9,0.05,-1
972,10,IACovDel6,2035,0,A,xIA,12,0.05,-1
973,10,IACovDel6,2036,0.8,A,xIA,3,0.05,-1
974,10,IACovDel6,2036,0,A,xIA,6,0.05,-1
975,10,IACovDel6,2036,0,A,xIA,9,0.05,-1
976,10,IACovDel6,2036,0,A,xIA,12,0.05,-1
977,10,IACovDel6,2037,0.8,A,xIA,3,0.05,-1
978,10,IACovDel6,2037,0,A,xIA,6,0.05,-1
979,10,IACovDel6,2037,0,A,xIA,9,0.05,-1
980,10,IACovDel6,2037,0,A,xIA,12,0.05,-1
981,10,IACovDel6,2038,0.8,A,xIA,3,0.05,-1
982,10,IACovDel6,2038,0,A,xIA,6,0.05,-1
983,10,IACovDel6,2038,0,A,xIA,9,0.05,-1
984,10,IACovDel6,2038,0,A,xIA,12,0.05,-1
985,10,IACovDel6,2039,0.8,A,xIA,3,0.05,-1
986,10,IACovDel6,2039,0,A,xIA,6,0.05,-1
987,10,IACovDel6,2039,0,A,xIA,9,0.05,-1
988,10,IACovDel6,2039,0,A,xIA,12,0.05,-1
989,10,IACovDel6,2040,0.8,A,xIA,3,0.05,-1
990,10,IACovDel6,2040,0,A,xIA,6,0.05,-1
991,10,IACovDel6,2040,0,A,xIA,9,0.05,-1
992,10,IACovDel6,2040,0,A,xIA,12,0.05,-1
993,10,IACovDel6,2041,0.8,A,xIA,3,0.05,-1
994,10,IACovDel6,2041,0,A,xIA,6,0.05,-1
995,10,IACovDel6,2041,0,A,xIA,9,0.05,-1
996,10,IACovDel6,2041,0,A,xIA,12,0.05,-1
997,10,IACovDel6,2042,0.8,A,xIA,3,0.05,-1
998,10,IACovDel6,2042,0,A,xIA,6,0.05,-1
999,10,IACovDel6,2042,0,A,xIA,9,0.05,-1
1000,10,IACovDel6,2042,0,A,xIA,12,0.05,-1
985,10,IACovDel6,2043,0.8,A,xIA,3,0.05,-1
986,10,IACovDel6,2043,0,A,xIA,6,0.05,-1
987,10,IACovDel6,2043,0,A,xIA,9,0.05,-1
988,10,IACovDel6,2043,0,A,xIA,12,0.05,-1
989,10,IACovDel6,2044,0.8,A,xIA,3,0.05,-1
990,10,IACovDel6,2044,0,A,xIA,6,0.05,-1
991,10,IACovDel6,2044,0,A,xIA,9,0.05,-1
992,10,IACovDel6,2044,0,A,xIA,12,0.05,-1
993,10,IACovDel6,2045,0.8,A,xIA,3,0.05,-1
994,10,IACovDel6,2045,0,A,xIA,6,0.05,-1
995,10,IACovDel6,2045,0,A,xIA,9,0.05,-1
996,10,IACovDel6,2045,0,A,xIA,12,0.05,-1
997,10,IACovDel6,2046,0.8,A,xIA,3,0.05,-1
998,10,IACovDel6,2046,0,A,xIA,6,0.05,-1
999,10,IACovDel6,2046,0,A,xIA,9,0.05,-1
1000,10,IACovDel6,2046,0,A,xIA,12,0.05,-1
1001,11,IACovDel12,2018,0.65,A,xIA,3,0.05,-1
1002,11,IACovDel12,2018,0,A,xIA,6,0.05,-1
1003,11,IACovDel12,2018,0,A,xIA,9,0.05,-1
1004,11,IACovDel12,2018,0,A,xIA,12,0.05,-1
1005,11,IACovDel12,2019,0.65,A,xIA,3,0.05,-1
1006,11,IACovDel12,2019,0,A,xIA,6,0.05,-1
1007,11,IACovDel12,2019,0,A,xIA,9,0.05,-1
1008,11,IACovDel12,2019,0,A,xIA,12,0.05,-1
1009,11,IACovDel12,2020,0,A,xIA,3,0.05,-1
1010,11,IACovDel12,2020,0,A,xIA,6,0.05,-1
1011,11,IACovDel12,2020,0,A,xIA,9,0.05,-1
1012,11,IACovDel12,2020,0,A,xIA,12,0.05,-1
1013,11,IACovDel12,2021,0.8,A,xIA,3,0.05,-1
1014,11,IACovDel12,2021,0,A,xIA,6,0.05,-1
1015,11,IACovDel12,2021,0,A,xIA,9,0.05,-1
1016,11,IACovDel12,2021,0,A,xIA,12,0.05,-1
1017,11,IACovDel12,2022,0.8,A,xIA,3,0.05,-1
1018,11,IACovDel12,2022,0,A,xIA,6,0.05,-1
1019,11,IACovDel12,2022,0,A,xIA,9,0.05,-1
1020,11,IACovDel12,2022,0,A,xIA,12,0.05,-1
1021,11,IACovDel12,2023,0.8,A,xIA,3,0.05,-1
1022,11,IACovDel12,2023,0,A,xIA,6,0.05,-1
1023,11,IACovDel12,2023,0,A,xIA,9,0.05,-1
1024,11,IACovDel12,2023,0,A,xIA,12,0.05,-1
1025,11,IACovDel12,2024,0.8,A,xIA,3,0.05,-1
1026,11,IACovDel12,2024,0,A,xIA,6,0.05,-1
1027,11,IACovDel12,2024,0,A,xIA,9,0.05,-1
1028,11,IACovDel12,2024,0,A,xIA,12,0.05,-1
1029,11,IACovDel12,2025,0.8,A,xIA,3,0.05,-1
1030,11,IACovDel12,2025,0,A,xIA,6,0.05,-1
1031,11,IACovDel12,2025,0,A,xIA,9,0.05,-1
1032,11,IACovDel12,2025,0,A,xIA,12,0.05,-1
1033,11,IACovDel12,2026,0.8,A,xIA,3,0.05,-1
1034,11,IACovDel12,2026,0,A,xIA,6,0.05,-1
1035,11,IACovDel12,2026,0,A,xIA,9,0.05,-1
1036,11,IACovDel12,2026,0,A,xIA,12,0.05,-1
1037,11,IACovDel12,2027,0.8,A,xIA,3,0.05,-1
1038,11,IACovDel12,2027,0,A,xIA,6,0.05,-1
1039,11,IACovDel12,2027,0,A,xIA,9,0.05,-1
1040,11,IACovDel12,2027,0,A,xIA,12,0.05,-1
1041,11,IACovDel12,2028,0.8,A,xIA,3,0.05,-1
1042,11,IACovDel12,2028,0,A,xIA,6,0.05,-1
1043,11,IACovDel12,2028,0,A,xIA,9,0.05,-1
1044,11,IACovDel12,2028,0,A,xIA,12,0.05,-1
1045,11,IACovDel12,2029,0.8,A,xIA,3,0.05,-1
1046,11,IACovDel12,2029,0,A,xIA,6,0.05,-1
1047,11,IACovDel12,2029,0,A,xIA,9,0.05,-1
1048,11,IACovDel12,2029,0,A,xIA,12,0.05,-1
1049,11,IACovDel12,2030,0.8,A,xIA,3,0.05,-1
1050,11,IACovDel12,2030,0,A,xIA,6,0.05,-1
1051,11,IACovDel12,2030,0,A,xIA,9,0.05,-1
1052,11,IACovDel12,2030,0,A,xIA,12,0.05,-1
1053,11,IACovDel12,2031,0.8,A,xIA,3,0.05,-1
1054,11,IACovDel12,2031,0,A,xIA,6,0.05,-1
1055,11,IACovDel12,2031,0,A,xIA,9,0.05,-1
1056,11,IACovDel12,2031,0,A,xIA,12,0.05,-1
1057,11,IACovDel12,2032,0.8,A,xIA,3,0.05,-1
1058,11,IACovDel12,2032,0,A,xIA,6,0.05,-1
1059,11,IACovDel12,2032,0,A,xIA,9,0.05,-1
1060,11,IACovDel12,2032,0,A,xIA,12,0.05,-1
1061,11,IACovDel12,2033,0.8,A,xIA,3,0.05,-1
1062,11,IACovDel12,2033,0,A,xIA,6,0.05,-1
1063,11,IACovDel12,2033,0,A,xIA,9,0.05,-1
1064,11,IACovDel12,2033,0,A,xIA,12,0.05,-1
1065,11,IACovDel12,2034,0.8,A,xIA,3,0.05,-1
1066,11,IACovDel12,2034,0,A,xIA,6,0.05,-1
1067,11,IACovDel12,2034,0,A,xIA,9,0.05,-1
1068,11,IACovDel12,2034,0,A,xIA,12,0.05,-1
1069,11,IACovDel12,2035,0.8,A,xIA,3,0.05,-1
1070,11,IACovDel12,2035,0,A,xIA,6,0.05,-1
1071,11,IACovDel12,2035,0,A,xIA,9,0.05,-1
1072,11,IACovDel12,2035,0,A,xIA,12,0.05,-1
1073,11,IACovDel12,2036,0.8,A,xIA,3,0.05,-1
1074,11,IACovDel12,2036,0,A,xIA,6,0.05,-1
1075,11,IACovDel12,2036,0,A,xIA,9,0.05,-1
1076,11,IACovDel12,2036,0,A,xIA,12,0.05,-1
1077,11,IACovDel12,2037,0.8,A,xIA,3,0.05,-1
1078,11,IACovDel12,2037,0,A,xIA,6,0.05,-1
1079,11,IACovDel12,2037,0,A,xIA,9,0.05,-1
1080,11,IACovDel12,2037,0,A,xIA,12,0.05,-1
1081,11,IACovDel12,2038,0.8,A,xIA,3,0.05,-1
1082,11,IACovDel12,2038,0,A,xIA,6,0.05,-1
1083,11,IACovDel12,2038,0,A,xIA,9,0.05,-1
1084,11,IACovDel12,2038,0,A,xIA,12,0.05,-1
1085,11,IACovDel12,2039,0.8,A,xIA,3,0.05,-1
1086,11,IACovDel12,2039,0,A,xIA,6,0.05,-1
1087,11,IACovDel12,2039,0,A,xIA,9,0.05,-1
1088,11,IACovDel12,2039,0,A,xIA,12,0.05,-1
1089,11,IACovDel12,2040,0.8,A,xIA,3,0.05,-1
1090,11,IACovDel12,2040,0,A,xIA,6,0.05,-1
1091,11,IACovDel12,2040,0,A,xIA,9,0.05,-1
1092,11,IACovDel12,2040,0,A,xIA,12,0.05,-1
1093,11,IACovDel12,2041,0.8,A,xIA,3,0.05,-1
1094,11,IACovDel12,2041,0,A,xIA,6,0.05,-1
1095,11,IACovDel12,2041,0,A,xIA,9,0.05,-1
1096,11,IACovDel12,2041,0,A,xIA,12,0.05,-1
1097,11,IACovDel12,2042,0.8,A,xIA,3,0.05,-1
1098,11,IACovDel12,2042,0,A,xIA,6,0.05,-1
1099,11,IACovDel12,2042,0,A,xIA,9,0.05,-1
1100,11,IACovDel12,2042,0,A,xIA,12,0.05,-1
1085,11,IACovDel12,2043,0.8,A,xIA,3,0.05,-1
1086,11,IACovDel12,2043,0,A,xIA,6,0.05,-1
1087,11,IACovDel12,2043,0,A,xIA,9,0.05,-1
1088,11,IACovDel12,2043,0,A,xIA,12,0.05,-1
1089,11,IACovDel12,2044,0.8,A,xIA,3,0.05,-1
1090,11,IACovDel12,2044,0,A,xIA,6,0.05,-1
1091,11,IACovDel12,2044,0,A,xIA,9,0.05,-1
1092,11,IACovDel12,2044,0,A,xIA,12,0.05,-1
1093,11,IACovDel12,2045,0.8,A,xIA,3,0.05,-1
1094,11,IACovDel12,2045,0,A,xIA,6,0.05,-1
1095,11,IACovDel12,2045,0,A,xIA,9,0.05,-1
1096,11,IACovDel12,2045,0,A,xIA,12,0.05,-1
1097,11,IACovDel12,2046,0.8,A,xIA,3,0.05,-1
1098,11,IACovDel12,2046,0,A,xIA,6,0.05,-1
1099,11,IACovDel12,2046,0,A,xIA,9,0.05,-1
1100,11,IACovDel12,2046,0,A,xIA,12,0.05,-1
1101,12,IACovDel18,2018,0.65,A,xIA,3,0.05,-1
1102,12,IACovDel18,2018,0,A,xIA,6,0.05,-1
1103,12,IACovDel18,2018,0,A,xIA,9,0.05,-1
1104,12,IACovDel18,2018,0,A,xIA,12,0.05,-1
1105,12,IACovDel18,2019,0.65,A,xIA,3,0.05,-1
1106,12,IACovDel18,2019,0,A,xIA,6,0.05,-1
1107,12,IACovDel18,2019,0,A,xIA,9,0.05,-1
1108,12,IACovDel18,2019,0,A,xIA,12,0.05,-1
1109,12,IACovDel18,2020,0,A,xIA,3,0.05,-1
1110,12,IACovDel18,2020,0,A,xIA,6,0.05,-1
1111,12,IACovDel18,2020,0,A,xIA,9,0.05,-1
1112,12,IACovDel18,2020,0,A,xIA,12,0.05,-1
1113,12,IACovDel18,2021,0,A,xIA,3,0.05,-1
1114,12,IACovDel18,2021,0,A,xIA,6,0.05,-1
1115,12,IACovDel18,2021,0.8,A,xIA,9,0.05,-1
1116,12,IACovDel18,2021,0,A,xIA,12,0.05,-1
1117,12,IACovDel18,2022,0.8,A,xIA,3,0.05,-1
1118,12,IACovDel18,2022,0,A,xIA,6,0.05,-1
1119,12,IACovDel18,2022,0,A,xIA,9,0.05,-1
1120,12,IACovDel18,2022,0,A,xIA,12,0.05,-1
1121,12,IACovDel18,2023,0.8,A,xIA,3,0.05,-1
1122,12,IACovDel18,2023,0,A,xIA,6,0.05,-1
1123,12,IACovDel18,2023,0,A,xIA,9,0.05,-1
1124,12,IACovDel18,2023,0,A,xIA,12,0.05,-1
1125,12,IACovDel18,2024,0.8,A,xIA,3,0.05,-1
1126,12,IACovDel18,2024,0,A,xIA,6,0.05,-1
1127,12,IACovDel18,2024,0,A,xIA,9,0.05,-1
1128,12,IACovDel18,2024,0,A,xIA,12,0.05,-1
1129,12,IACovDel18,2025,0.8,A,xIA,3,0.05,-1
1130,12,IACovDel18,2025,0,A,xIA,6,0.05,-1
1131,12,IACovDel18,2025,0,A,xIA,9,0.05,-1
1132,12,IACovDel18,2025,0,A,xIA,12,0.05,-1
1133,12,IACovDel18,2026,0.8,A,xIA,3,0.05,-1
1134,12,IACovDel18,2026,0,A,xIA,6,0.05,-1
1135,12,IACovDel18,2026,0,A,xIA,9,0.05,-1
1136,12,IACovDel18,2026,0,A,xIA,12,0.05,-1
1137,12,IACovDel18,2027,0.8,A,xIA,3,0.05,-1
1138,12,IACovDel18,2027,0,A,xIA,6,0.05,-1
1139,12,IACovDel18,2027,0,A,xIA,9,0.05,-1
1140,12,IACovDel18,2027,0,A,xIA,12,0.05,-1
1141,12,IACovDel18,2028,0.8,A,xIA,3,0.05,-1
1142,12,IACovDel18,2028,0,A,xIA,6,0.05,-1
1143,12,IACovDel18,2028,0,A,xIA,9,0.05,-1
1144,12,IACovDel18,2028,0,A,xIA,12,0.05,-1
1145,12,IACovDel18,2029,0.8,A,xIA,3,0.05,-1
1146,12,IACovDel18,2029,0,A,xIA,6,0.05,-1
1147,12,IACovDel18,2029,0,A,xIA,9,0.05,-1
1148,12,IACovDel18,2029,0,A,xIA,12,0.05,-1
1149,12,IACovDel18,2030,0.8,A,xIA,3,0.05,-1
1150,12,IACovDel18,2030,0,A,xIA,6,0.05,-1
1151,12,IACovDel18,2030,0,A,xIA,9,0.05,-1
1152,12,IACovDel18,2030,0,A,xIA,12,0.05,-1
1153,12,IACovDel18,2031,0.8,A,xIA,3,0.05,-1
1154,12,IACovDel18,2031,0,A,xIA,6,0.05,-1
1155,12,IACovDel18,2031,0,A,xIA,9,0.05,-1
1156,12,IACovDel18,2031,0,A,xIA,12,0.05,-1
1157,12,IACovDel18,2032,0.8,A,xIA,3,0.05,-1
1158,12,IACovDel18,2032,0,A,xIA,6,0.05,-1
1159,12,IACovDel18,2032,0,A,xIA,9,0.05,-1
1160,12,IACovDel18,2032,0,A,xIA,12,0.05,-1
1161,12,IACovDel18,2033,0.8,A,xIA,3,0.05,-1
1162,12,IACovDel18,2033,0,A,xIA,6,0.05,-1
1163,12,IACovDel18,2033,0,A,xIA,9,0.05,-1
1164,12,IACovDel18,2033,0,A,xIA,12,0.05,-1
1165,12,IACovDel18,2034,0.8,A,xIA,3,0.05,-1
1166,12,IACovDel18,2034,0,A,xIA,6,0.05,-1
1167,12,IACovDel18,2034,0,A,xIA,9,0.05,-1
1168,12,IACovDel18,2034,0,A,xIA,12,0.05,-1
1169,12,IACovDel18,2035,0.8,A,xIA,3,0.05,-1
1170,12,IACovDel18,2035,0,A,xIA,6,0.05,-1
1171,12,IACovDel18,2035,0,A,xIA,9,0.05,-1
1172,12,IACovDel18,2035,0,A,xIA,12,0.05,-1
1173,12,IACovDel18,2036,0.8,A,xIA,3,0.05,-1
1174,12,IACovDel18,2036,0,A,xIA,6,0.05,-1
1175,12,IACovDel18,2036,0,A,xIA,9,0.05,-1
1176,12,IACovDel18,2036,0,A,xIA,12,0.05,-1
1177,12,IACovDel18,2037,0.8,A,xIA,3,0.05,-1
1178,12,IACovDel18,2037,0,A,xIA,6,0.05,-1
1179,12,IACovDel18,2037,0,A,xIA,9,0.05,-1
1180,12,IACovDel18,2037,0,A,xIA,12,0.05,-1
1181,12,IACovDel18,2038,0.8,A,xIA,3,0.05,-1
1182,12,IACovDel18,2038,0,A,xIA,6,0.05,-1
1183,12,IACovDel18,2038,0,A,xIA,9,0.05,-1
1184,12,IACovDel18,2038,0,A,xIA,12,0.05,-1
1185,12,IACovDel18,2039,0.8,A,xIA,3,0.05,-1
1186,12,IACovDel18,2039,0,A,xIA,6,0.05,-1
1187,12,IACovDel18,2039,0,A,xIA,9,0.05,-1
1188,12,IACovDel18,2039,0,A,xIA,12,0.05,-1
1189,12,IACovDel18,2040,0.8,A,xIA,3,0.05,-1
1190,12,IACovDel18,2040,0,A,xIA,6,0.05,-1
1191,12,IACovDel18,2040,0,A,xIA,9,0.05,-1
1192,12,IACovDel18,2040,0,A,xIA,12,0.05,-1
1193,12,IACovDel18,2041,0.8,A,xIA,3,0.05,-1
1194,12,IACovDel18,2041,0,A,xIA,6,0.05,-1
1195,12,IACovDel18,2041,0,A,xIA,9,0.05,-1
1196,12,IACovDel18,2041,0,A,xIA,12,0.05,-1
1197,12,IACovDel18,2042,0.8,A,xIA,3,0.05,-1
1198,12,IACovDel18,2042,0,A,xIA,6,0.05,-1
1199,12,IACovDel18,2042,0,A,xIA,9,0.05,-1
1200,12,IACovDel18,2042,0,A,xIA,12,0.05,-1
1185,12,IACovDel18,2043,0.8,A,xIA,3,0.05,-1
1186,12,IACovDel18,2043,0,A,xIA,6,0.05,-1
1187,12,IACovDel18,2043,0,A,xIA,9,0.05,-1
1188,12,IACovDel18,2043,0,A,xIA,12,0.05,-1
1189,12,IACovDel18,2044,0.8,A,xIA,3,0.05,-1
1190,12,IACovDel18,2044,0,A,xIA,6,0.05,-1
1191,12,IACovDel18,2044,0,A,xIA,9,0.05,-1
1192,12,IACovDel18,2044,0,A,xIA,12,0.05,-1
1193,12,IACovDel18,2045,0.8,A,xIA,3,0.05,-1
1194,12,IACovDel18,2045,0,A,xIA,6,0.05,-1
1195,12,IACovDel18,2045,0,A,xIA,9,0.05,-1
1196,12,IACovDel18,2045,0,A,xIA,12,0.05,-1
1197,12,IACovDel18,2046,0.8,A,xIA,3,0.05,-1
1198,12,IACovDel18,2046,0,A,xIA,6,0.05,-1
1199,12,IACovDel18,2046,0,A,xIA,9,0.05,-1
1200,12,IACovDel18,2046,0,A,xIA,12,0.05,-1
1201,13,IACovDel24,2018,0.65,A,xIA,3,0.05,-1
1202,13,IACovDel24,2018,0,A,xIA,6,0.05,-1
1203,13,IACovDel24,2018,0,A,xIA,9,0.05,-1
1204,13,IACovDel24,2018,0,A,xIA,12,0.05,-1
1205,13,IACovDel24,2019,0.65,A,xIA,3,0.05,-1
1206,13,IACovDel24,2019,0,A,xIA,6,0.05,-1
1207,13,IACovDel24,2019,0,A,xIA,9,0.05,-1
1208,13,IACovDel24,2019,0,A,xIA,12,0.05,-1
1209,13,IACovDel24,2020,0,A,xIA,3,0.05,-1
1210,13,IACovDel24,2020,0,A,xIA,6,0.05,-1
1211,13,IACovDel24,2020,0,A,xIA,9,0.05,-1
1212,13,IACovDel24,2020,0,A,xIA,12,0.05,-1
1213,13,IACovDel24,2021,0,A,xIA,3,0.05,-1
1214,13,IACovDel24,2021,0,A,xIA,6,0.05,-1
1215,13,IACovDel24,2021,0,A,xIA,9,0.05,-1
1216,13,IACovDel24,2021,0,A,xIA,12,0.05,-1
1217,13,IACovDel24,2022,0.8,A,xIA,3,0.05,-1
1218,13,IACovDel24,2022,0,A,xIA,6,0.05,-1
1219,13,IACovDel24,2022,0,A,xIA,9,0.05,-1
1220,13,IACovDel24,2022,0,A,xIA,12,0.05,-1
1221,13,IACovDel24,2023,0.8,A,xIA,3,0.05,-1
1222,13,IACovDel24,2023,0,A,xIA,6,0.05,-1
1223,13,IACovDel24,2023,0,A,xIA,9,0.05,-1
1224,13,IACovDel24,2023,0,A,xIA,12,0.05,-1
1225,13,IACovDel24,2024,0.8,A,xIA,3,0.05,-1
1226,13,IACovDel24,2024,0,A,xIA,6,0.05,-1
1227,13,IACovDel24,2024,0,A,xIA,9,0.05,-1
1228,13,IACovDel24,2024,0,A,xIA,12,0.05,-1
1229,13,IACovDel24,2025,0.8,A,xIA,3,0.05,-1
1230,13,IACovDel24,2025,0,A,xIA,6,0.05,-1
1231,13,IACovDel24,2025,0,A,xIA,9,0.05,-1
1232,13,IACovDel24,2025,0,A,xIA,12,0.05,-1
1233,13,IACovDel24,2026,0.8,A,xIA,3,0.05,-1
1234,13,IACovDel24,2026,0,A,xIA,6,0.05,-1
1235,13,IACovDel24,2026,0,A,xIA,9,0.05,-1
1236,13,IACovDel24,2026,0,A,xIA,12,0.05,-1
1237,13,IACovDel24,2027,0.8,A,xIA,3,0.05,-1
1238,13,IACovDel24,2027,0,A,xIA,6,0.05,-1
1239,13,IACovDel24,2027,0,A,xIA,9,0.05,-1
1240,13,IACovDel24,2027,0,A,xIA,12,0.05,-1
1241,13,IACovDel24,2028,0.8,A,xIA,3,0.05,-1
1242,13,IACovDel24,2028,0,A,xIA,6,0.05,-1
1243,13,IACovDel24,2028,0,A,xIA,9,0.05,-1
1244,13,IACovDel24,2028,0,A,xIA,12,0.05,-1
1245,13,IACovDel24,2029,0.8,A,xIA,3,0.05,-1
1246,13,IACovDel24,2029,0,A,xIA,6,0.05,-1
1247,13,IACovDel24,2029,0,A,xIA,9,0.05,-1
1248,13,IACovDel24,2029,0,A,xIA,12,0.05,-1
1249,13,IACovDel24,2030,0.8,A,xIA,3,0.05,-1
1250,13,IACovDel24,2030,0,A,xIA,6,0.05,-1
1251,13,IACovDel24,2030,0,A,xIA,9,0.05,-1
1252,13,IACovDel24,2030,0,A,xIA,12,0.05,-1
1253,13,IACovDel24,2031,0.8,A,xIA,3,0.05,-1
1254,13,IACovDel24,2031,0,A,xIA,6,0.05,-1
1255,13,IACovDel24,2031,0,A,xIA,9,0.05,-1
1256,13,IACovDel24,2031,0,A,xIA,12,0.05,-1
1257,13,IACovDel24,2032,0.8,A,xIA,3,0.05,-1
1258,13,IACovDel24,2032,0,A,xIA,6,0.05,-1
1259,13,IACovDel24,2032,0,A,xIA,9,0.05,-1
1260,13,IACovDel24,2032,0,A,xIA,12,0.05,-1
1261,13,IACovDel24,2033,0.8,A,xIA,3,0.05,-1
1262,13,IACovDel24,2033,0,A,xIA,6,0.05,-1
1263,13,IACovDel24,2033,0,A,xIA,9,0.05,-1
1264,13,IACovDel24,2033,0,A,xIA,12,0.05,-1
1265,13,IACovDel24,2034,0.8,A,xIA,3,0.05,-1
1266,13,IACovDel24,2034,0,A,xIA,6,0.05,-1
1267,13,IACovDel24,2034,0,A,xIA,9,0.05,-1
1268,13,IACovDel24,2034,0,A,xIA,12,0.05,-1
1269,13,IACovDel24,2035,0.8,A,xIA,3,0.05,-1
1270,13,IACovDel24,2035,0,A,xIA,6,0.05,-1
1271,13,IACovDel24,2035,0,A,xIA,9,0.05,-1
1272,13,IACovDel24,2035,0,A,xIA,12,0.05,-1
1273,13,IACovDel24,2036,0.8,A,xIA,3,0.05,-1
1274,13,IACovDel24,2036,0,A,xIA,6,0.05,-1
1275,13,IACovDel24,2036,0,A,xIA,9,0.05,-1
1276,13,IACovDel24,2036,0,A,xIA,12,0.05,-1
1277,13,IACovDel24,2037,0.8,A,xIA,3,0.05,-1
1278,13,IACovDel24,2037,0,A,xIA,6,0.05,-1
1279,13,IACovDel24,2037,0,A,xIA,9,0.05,-1
1280,13,IACovDel24,2037,0,A,xIA,12,0.05,-1
1281,13,IACovDel24,2038,0.8,A,xIA,3,0.05,-1
1282,13,IACovDel24,2038,0,A,xIA,6,0.05,-1
1283,13,IACovDel24,2038,0,A,xIA,9,0.05,-1
1284,13,IACovDel24,2038,0,A,xIA,12,0.05,-1
1285,13,IACovDel24,2039,0.8,A,xIA,3,0.05,-1
1286,13,IACovDel24,2039,0,A,xIA,6,0.05,-1
1287,13,IACovDel24,2039,0,A,xIA,9,0.05,-1
1288,13,IACovDel24,2039,0,A,xIA,12,0.05,-1
1289,13,IACovDel24,2040,0.8,A,xIA,3,0.05,-1
1290,13,IACovDel24,2040,0,A,xIA,6,0.05,-1
1291,13,IACovDel24,2040,0,A,xIA,9,0.05,-1
1292,13,IACovDel24,2040,0,A,xIA,12,0.05,-1
1293,13,IACovDel24,2041,0.8,A,xIA,3,0.05,-1
1294,13,IACovDel24,2041,0,A,xIA,6,0.05,-1
1295,13,IACovDel24,2041,0,A,xIA,9,0.05,-1
1296,13,IACovDel24,2041,0,A,xIA,12,0.05,-1
1297,13,IACovDel24,2042,0.8,A,xIA,3,0.05,-1
1298,13,IACovDel24,2042,0,A,xIA,6,0.05,-1
1299,13,IACovDel24,2042,0,A,xIA,9,0.05,-1
1300,13,IACovDel24,2042,0,A,xIA,12,0.05,-1
1285,13,IACovDel24,2043,0.8,A,xIA,3,0.05,-1
1286,13,IACovDel24,2043,0,A,xIA,6,0.05,-1
1287,13,IACovDel24,2043,0,A,xIA,9,0.05,-1
1288,13,IACovDel24,2043,0,A,xIA,12,0.05,-1
1289,13,IACovDel24,2044,0.8,A,xIA,3,0.05,-1
1290,13,IACovDel24,2044,0,A,xIA,6,0.05,-1
1291,13,IACovDel24,2044,0,A,xIA,9,0.05,-1
1292,13,IACovDel24,2044,0,A,xIA,12,0.05,-1
1293,13,IACovDel24,2045,0.8,A,xIA,3,0.05,-1
1294,13,IACovDel24,2045,0,A,xIA,6,0.05,-1
1295,13,IACovDel24,2045,0,A,xIA,9,0.05,-1
1296,13,IACovDel24,2045,0,A,xIA,12,0.05,-1
1297,13,IACovDel24,2046,0.8,A,xIA,3,0.05,-1
1298,13,IACovDel24,2046,0,A,xIA,6,0.05,-1
1299,13,IACovDel24,2046,0,A,xIA,9,0.05,-1
1300,13,IACovDel24,2046,0,A,xIA,12,0.05,-1